info face="Cursive Serif" size=160 bold=0 italic=0 charset="" unicode=1 stretchH=100 smooth=1 aa=1 padding=0,0,0,0 spacing=1,1 outline=0
common lineHeight=160 base=125 scaleW=1024 scaleH=1024 pages=1 packed=0 alphaChnl=1 redChnl=0 greenChnl=0 blueChnl=0
page id=0 file="levelIconFont@4x_0.png"
chars count=95
char id=32   x=1009  y=0     width=3     height=1     xoffset=-1    yoffset=159   xadvance=51    page=0  chnl=15
char id=33   x=981   y=307   width=38    height=99    xoffset=13    yoffset=27    xadvance=42    page=0  chnl=15
char id=34   x=344   y=613   width=33    height=29    xoffset=31    yoffset=25    xadvance=54    page=0  chnl=15
char id=35   x=66    y=613   width=70    height=59    xoffset=20    yoffset=47    xadvance=87    page=0  chnl=15
char id=36   x=0     y=0     width=73    height=136   xoffset=14    yoffset=8     xadvance=87    page=0  chnl=15
char id=37   x=93    y=239   width=89    height=99    xoffset=20    yoffset=27    xadvance=108   page=0  chnl=15
char id=38   x=271   y=237   width=86    height=99    xoffset=15    yoffset=27    xadvance=99    page=0  chnl=15
char id=39   x=1001  y=105   width=17    height=29    xoffset=31    yoffset=25    xadvance=37    page=0  chnl=15
char id=40   x=120   y=0     width=45    height=136   xoffset=21    yoffset=8     xadvance=42    page=0  chnl=15
char id=41   x=74    y=0     width=45    height=136   xoffset=-1    yoffset=8     xadvance=42    page=0  chnl=15
char id=42   x=0     y=613   width=65    height=64    xoffset=28    yoffset=25    xadvance=90    page=0  chnl=15
char id=43   x=137   y=613   width=57    height=53    xoffset=22    yoffset=50    xadvance=79    page=0  chnl=15
char id=44   x=252   y=613   width=28    height=32    xoffset=7     yoffset=109   xadvance=45    page=0  chnl=15
char id=45   x=423   y=126   width=58    height=9     xoffset=22    yoffset=72    xadvance=79    page=0  chnl=15
char id=46   x=803   y=492   width=19    height=17    xoffset=13    yoffset=109   xadvance=42    page=0  chnl=15
char id=47   x=561   y=0     width=93    height=117   xoffset=-1    yoffset=18    xadvance=69    page=0  chnl=15
char id=48   x=941   y=207   width=80    height=99    xoffset=18    yoffset=27    xadvance=94    page=0  chnl=15
char id=49   x=326   y=136   width=49    height=100   xoffset=4     yoffset=25    xadvance=45    page=0  chnl=15
char id=50   x=698   y=218   width=80    height=99    xoffset=9     yoffset=27    xadvance=85    page=0  chnl=15
char id=51   x=144   y=439   width=70    height=99    xoffset=15    yoffset=27    xadvance=84    page=0  chnl=15
char id=52   x=247   y=136   width=78    height=100   xoffset=5     yoffset=25    xadvance=76    page=0  chnl=15
char id=53   x=600   y=426   width=78    height=98    xoffset=15    yoffset=28    xadvance=84    page=0  chnl=15
char id=54   x=393   y=337   width=74    height=99    xoffset=18    yoffset=27    xadvance=87    page=0  chnl=15
char id=55   x=72    y=439   width=71    height=99    xoffset=18    yoffset=27    xadvance=66    page=0  chnl=15
char id=56   x=763   y=318   width=72    height=99    xoffset=13    yoffset=27    xadvance=82    page=0  chnl=15
char id=57   x=318   y=337   width=74    height=99    xoffset=17    yoffset=27    xadvance=87    page=0  chnl=15
char id=58   x=977   y=481   width=29    height=58    xoffset=13    yoffset=68    xadvance=42    page=0  chnl=15
char id=59   x=723   y=517   width=37    height=73    xoffset=5     yoffset=68    xadvance=42    page=0  chnl=15
char id=60   x=903   y=492   width=73    height=68    xoffset=20    yoffset=41    xadvance=87    page=0  chnl=15
char id=61   x=281   y=613   width=62    height=29    xoffset=20    yoffset=62    xadvance=79    page=0  chnl=15
char id=62   x=829   y=492   width=73    height=68    xoffset=17    yoffset=41    xadvance=87    page=0  chnl=15
char id=63   x=354   y=437   width=65    height=99    xoffset=24    yoffset=27    xadvance=81    page=0  chnl=15
char id=64   x=160   y=339   width=78    height=99    xoffset=12    yoffset=53    xadvance=88    page=0  chnl=15
char id=65   x=613   y=118   width=99    height=99    xoffset=2     yoffset=27    xadvance=97    page=0  chnl=15
char id=66   x=614   y=218   width=83    height=99    xoffset=7     yoffset=27    xadvance=90    page=0  chnl=15
char id=67   x=0     y=339   width=79    height=99    xoffset=18    yoffset=27    xadvance=90    page=0  chnl=15
char id=68   x=810   y=107   width=96    height=99    xoffset=7     yoffset=27    xadvance=100   page=0  chnl=15
char id=69   x=690   y=318   width=72    height=99    xoffset=15    yoffset=27    xadvance=85    page=0  chnl=15
char id=70   x=444   y=236   width=85    height=99    xoffset=4     yoffset=27    xadvance=78    page=0  chnl=15
char id=71   x=80    y=339   width=79    height=99    xoffset=18    yoffset=27    xadvance=93    page=0  chnl=15
char id=72   x=506   y=126   width=106   height=99    xoffset=4     yoffset=27    xadvance=92    page=0  chnl=15
char id=73   x=754   y=418   width=48    height=98    xoffset=4     yoffset=28    xadvance=44    page=0  chnl=15
char id=74   x=909   y=307   width=71    height=99    xoffset=3     yoffset=27    xadvance=69    page=0  chnl=15
char id=75   x=738   y=0     width=95    height=106   xoffset=4     yoffset=27    xadvance=96    page=0  chnl=15
char id=76   x=358   y=237   width=85    height=99    xoffset=4     yoffset=27    xadvance=79    page=0  chnl=15
char id=77   x=0     y=137   width=133   height=101   xoffset=3     yoffset=27    xadvance=129   page=0  chnl=15
char id=78   x=134   y=137   width=112   height=101   xoffset=4     yoffset=27    xadvance=98    page=0  chnl=15
char id=79   x=779   y=218   width=80    height=99    xoffset=18    yoffset=27    xadvance=94    page=0  chnl=15
char id=80   x=907   y=107   width=93    height=99    xoffset=7     yoffset=27    xadvance=94    page=0  chnl=15
char id=81   x=834   y=0     width=81    height=106   xoffset=17    yoffset=27    xadvance=92    page=0  chnl=15
char id=82   x=916   y=0     width=92    height=104   xoffset=7     yoffset=27    xadvance=97    page=0  chnl=15
char id=83   x=468   y=336   width=73    height=99    xoffset=14    yoffset=27    xadvance=87    page=0  chnl=15
char id=84   x=183   y=239   width=87    height=99    xoffset=16    yoffset=27    xadvance=84    page=0  chnl=15
char id=85   x=530   y=226   width=83    height=99    xoffset=20    yoffset=27    xadvance=95    page=0  chnl=15
char id=86   x=239   y=339   width=78    height=99    xoffset=20    yoffset=27    xadvance=93    page=0  chnl=15
char id=87   x=376   y=136   width=129   height=99    xoffset=20    yoffset=27    xadvance=144   page=0  chnl=15
char id=88   x=0     y=239   width=92    height=99    xoffset=4     yoffset=27    xadvance=82    page=0  chnl=15
char id=89   x=860   y=207   width=80    height=99    xoffset=20    yoffset=27    xadvance=92    page=0  chnl=15
char id=90   x=713   y=118   width=96    height=99    xoffset=6     yoffset=27    xadvance=89    page=0  chnl=15
char id=91   x=233   y=0     width=66    height=135   xoffset=11    yoffset=9     xadvance=53    page=0  chnl=15
char id=92   x=655   y=0     width=43    height=117   xoffset=24    yoffset=18    xadvance=69    page=0  chnl=15
char id=93   x=166   y=0     width=66    height=135   xoffset=-2    yoffset=9     xadvance=53    page=0  chnl=15
char id=94   x=195   y=613   width=56    height=32    xoffset=30    yoffset=25    xadvance=82    page=0  chnl=15
char id=95   x=738   y=107   width=57    height=9     xoffset=9     yoffset=129   xadvance=79    page=0  chnl=15
char id=96   x=996   y=407   width=25    height=26    xoffset=33    yoffset=25    xadvance=52    page=0  chnl=15
char id=97   x=333   y=539   width=68    height=73    xoffset=16    yoffset=53    xadvance=81    page=0  chnl=15
char id=98   x=420   y=437   width=63    height=99    xoffset=19    yoffset=27    xadvance=81    page=0  chnl=15
char id=99   x=535   y=536   width=63    height=73    xoffset=15    yoffset=53    xadvance=75    page=0  chnl=15
char id=100  x=0     y=439   width=71    height=99    xoffset=16    yoffset=27    xadvance=81    page=0  chnl=15
char id=101  x=599   y=526   width=62    height=73    xoffset=14    yoffset=53    xadvance=75    page=0  chnl=15
char id=102  x=423   y=0     width=84    height=125   xoffset=-3    yoffset=27    xadvance=63    page=0  chnl=15
char id=103  x=542   y=326   width=73    height=99    xoffset=10    yoffset=53    xadvance=78    page=0  chnl=15
char id=104  x=836   y=318   width=72    height=99    xoffset=14    yoffset=27    xadvance=82    page=0  chnl=15
char id=105  x=533   y=436   width=34    height=99    xoffset=13    yoffset=27    xadvance=41    page=0  chnl=15
char id=106  x=508   y=0     width=52    height=124   xoffset=-5    yoffset=27    xadvance=39    page=0  chnl=15
char id=107  x=215   y=439   width=69    height=99    xoffset=14    yoffset=27    xadvance=77    page=0  chnl=15
char id=108  x=568   y=426   width=31    height=99    xoffset=16    yoffset=27    xadvance=41    page=0  chnl=15
char id=109  x=803   y=418   width=113   height=73    xoffset=13    yoffset=53    xadvance=122   page=0  chnl=15
char id=110  x=185   y=539   width=73    height=73    xoffset=13    yoffset=53    xadvance=82    page=0  chnl=15
char id=111  x=470   y=537   width=64    height=73    xoffset=15    yoffset=53    xadvance=77    page=0  chnl=15
char id=112  x=679   y=418   width=74    height=98    xoffset=8     yoffset=53    xadvance=81    page=0  chnl=15
char id=113  x=285   y=439   width=68    height=99    xoffset=16    yoffset=53    xadvance=81    page=0  chnl=15
char id=114  x=761   y=517   width=67    height=72    xoffset=13    yoffset=53    xadvance=67    page=0  chnl=15
char id=115  x=662   y=525   width=60    height=73    xoffset=12    yoffset=53    xadvance=70    page=0  chnl=15
char id=116  x=484   y=436   width=48    height=99    xoffset=17    yoffset=27    xadvance=49    page=0  chnl=15
char id=117  x=259   y=539   width=73    height=73    xoffset=13    yoffset=53    xadvance=82    page=0  chnl=15
char id=118  x=402   y=537   width=67    height=73    xoffset=13    yoffset=53    xadvance=79    page=0  chnl=15
char id=119  x=0     y=539   width=107   height=73    xoffset=13    yoffset=53    xadvance=119   page=0  chnl=15
char id=120  x=108   y=539   width=76    height=73    xoffset=3     yoffset=53    xadvance=70    page=0  chnl=15
char id=121  x=616   y=318   width=73    height=99    xoffset=11    yoffset=53    xadvance=79    page=0  chnl=15
char id=122  x=917   y=407   width=78    height=73    xoffset=3     yoffset=53    xadvance=69    page=0  chnl=15
char id=123  x=362   y=0     width=60    height=135   xoffset=14    yoffset=9     xadvance=50    page=0  chnl=15
char id=124  x=699   y=0     width=38    height=117   xoffset=13    yoffset=18    xadvance=42    page=0  chnl=15
char id=125  x=300   y=0     width=61    height=135   xoffset=-2    yoffset=9     xadvance=50    page=0  chnl=15
char id=126  x=378   y=613   width=71    height=24    xoffset=21    yoffset=66    xadvance=92    page=0  chnl=15
kernings count=691
kerning first=65  second=66  amount=-5  
kerning first=65  second=68  amount=-5  
kerning first=65  second=67  amount=-10 
kerning first=65  second=69  amount=-10 
kerning first=65  second=71  amount=-10 
kerning first=65  second=81  amount=-10 
kerning first=65  second=83  amount=-10 
kerning first=65  second=74  amount=1   
kerning first=65  second=84  amount=-18 
kerning first=65  second=97  amount=-5  
kerning first=65  second=99  amount=-5  
kerning first=65  second=100 amount=-5  
kerning first=65  second=101 amount=-5  
kerning first=65  second=103 amount=-5  
kerning first=65  second=111 amount=-5  
kerning first=65  second=113 amount=-5  
kerning first=65  second=115 amount=-5  
kerning first=65  second=98  amount=-5  
kerning first=65  second=102 amount=-5  
kerning first=65  second=104 amount=-5  
kerning first=65  second=107 amount=-5  
kerning first=65  second=108 amount=-5  
kerning first=65  second=116 amount=-5  
kerning first=65  second=105 amount=-5  
kerning first=65  second=109 amount=-3  
kerning first=65  second=110 amount=-3  
kerning first=65  second=112 amount=-3  
kerning first=65  second=114 amount=-3  
kerning first=65  second=117 amount=-3  
kerning first=65  second=118 amount=-3  
kerning first=65  second=119 amount=-3  
kerning first=65  second=121 amount=-3  
kerning first=65  second=122 amount=-3  
kerning first=66  second=65  amount=-6  
kerning first=66  second=74  amount=-6  
kerning first=66  second=84  amount=-10 
kerning first=66  second=88  amount=-8  
kerning first=66  second=97  amount=-3  
kerning first=66  second=99  amount=-3  
kerning first=66  second=100 amount=-3  
kerning first=66  second=101 amount=-3  
kerning first=66  second=103 amount=-3  
kerning first=66  second=111 amount=-3  
kerning first=66  second=113 amount=-3  
kerning first=66  second=115 amount=-3  
kerning first=66  second=98  amount=-2  
kerning first=66  second=102 amount=-2  
kerning first=66  second=104 amount=-2  
kerning first=66  second=107 amount=-2  
kerning first=66  second=108 amount=-2  
kerning first=66  second=116 amount=-2  
kerning first=66  second=106 amount=3   
kerning first=66  second=120 amount=-3  
kerning first=67  second=65  amount=-6  
kerning first=67  second=74  amount=-3  
kerning first=67  second=84  amount=-10 
kerning first=67  second=88  amount=-10 
kerning first=67  second=97  amount=-2  
kerning first=67  second=99  amount=-2  
kerning first=67  second=100 amount=-2  
kerning first=67  second=101 amount=-2  
kerning first=67  second=103 amount=-2  
kerning first=67  second=111 amount=-2  
kerning first=67  second=113 amount=-2  
kerning first=67  second=115 amount=-2  
kerning first=67  second=105 amount=2   
kerning first=67  second=106 amount=3   
kerning first=67  second=109 amount=3   
kerning first=67  second=110 amount=3   
kerning first=67  second=112 amount=3   
kerning first=67  second=114 amount=3   
kerning first=67  second=117 amount=3   
kerning first=67  second=118 amount=3   
kerning first=67  second=119 amount=3   
kerning first=67  second=121 amount=3   
kerning first=68  second=65  amount=-6  
kerning first=68  second=74  amount=-6  
kerning first=68  second=84  amount=-10 
kerning first=68  second=88  amount=-8  
kerning first=68  second=97  amount=-3  
kerning first=68  second=99  amount=-3  
kerning first=68  second=100 amount=-3  
kerning first=68  second=101 amount=-3  
kerning first=68  second=103 amount=-3  
kerning first=68  second=111 amount=-3  
kerning first=68  second=113 amount=-3  
kerning first=68  second=115 amount=-3  
kerning first=68  second=98  amount=-2  
kerning first=68  second=102 amount=-2  
kerning first=68  second=104 amount=-2  
kerning first=68  second=107 amount=-2  
kerning first=68  second=108 amount=-2  
kerning first=68  second=116 amount=-2  
kerning first=68  second=106 amount=3   
kerning first=68  second=120 amount=-3  
kerning first=69  second=65  amount=-6  
kerning first=69  second=74  amount=-3  
kerning first=69  second=84  amount=-10 
kerning first=69  second=88  amount=-10 
kerning first=69  second=97  amount=-2  
kerning first=69  second=99  amount=-2  
kerning first=69  second=100 amount=-2  
kerning first=69  second=101 amount=-2  
kerning first=69  second=103 amount=-2  
kerning first=69  second=111 amount=-2  
kerning first=69  second=113 amount=-2  
kerning first=69  second=115 amount=-2  
kerning first=69  second=105 amount=2   
kerning first=69  second=106 amount=3   
kerning first=69  second=109 amount=3   
kerning first=69  second=110 amount=3   
kerning first=69  second=112 amount=3   
kerning first=69  second=114 amount=3   
kerning first=69  second=117 amount=3   
kerning first=69  second=118 amount=3   
kerning first=69  second=119 amount=3   
kerning first=69  second=121 amount=3   
kerning first=70  second=65  amount=-13 
kerning first=70  second=66  amount=-3  
kerning first=70  second=68  amount=-3  
kerning first=70  second=67  amount=-3  
kerning first=70  second=69  amount=-3  
kerning first=70  second=71  amount=-3  
kerning first=70  second=81  amount=-3  
kerning first=70  second=83  amount=-3  
kerning first=70  second=74  amount=-18 
kerning first=70  second=84  amount=-6  
kerning first=70  second=88  amount=-3  
kerning first=70  second=97  amount=-12 
kerning first=70  second=99  amount=-12 
kerning first=70  second=100 amount=-12 
kerning first=70  second=101 amount=-12 
kerning first=70  second=103 amount=-12 
kerning first=70  second=111 amount=-12 
kerning first=70  second=113 amount=-12 
kerning first=70  second=115 amount=-12 
kerning first=70  second=98  amount=-3  
kerning first=70  second=102 amount=-3  
kerning first=70  second=104 amount=-3  
kerning first=70  second=107 amount=-3  
kerning first=70  second=108 amount=-3  
kerning first=70  second=116 amount=-3  
kerning first=70  second=109 amount=-3  
kerning first=70  second=110 amount=-3  
kerning first=70  second=112 amount=-3  
kerning first=70  second=114 amount=-3  
kerning first=70  second=117 amount=-3  
kerning first=70  second=118 amount=-3  
kerning first=70  second=119 amount=-3  
kerning first=70  second=121 amount=-3  
kerning first=70  second=120 amount=-10 
kerning first=70  second=122 amount=-5  
kerning first=71  second=65  amount=-6  
kerning first=71  second=74  amount=-3  
kerning first=71  second=84  amount=-10 
kerning first=71  second=88  amount=-10 
kerning first=71  second=97  amount=-2  
kerning first=71  second=99  amount=-2  
kerning first=71  second=100 amount=-2  
kerning first=71  second=101 amount=-2  
kerning first=71  second=103 amount=-2  
kerning first=71  second=111 amount=-2  
kerning first=71  second=113 amount=-2  
kerning first=71  second=115 amount=-2  
kerning first=71  second=105 amount=2   
kerning first=71  second=106 amount=3   
kerning first=71  second=109 amount=3   
kerning first=71  second=110 amount=3   
kerning first=71  second=112 amount=3   
kerning first=71  second=114 amount=3   
kerning first=71  second=117 amount=3   
kerning first=71  second=118 amount=3   
kerning first=71  second=119 amount=3   
kerning first=71  second=121 amount=3   
kerning first=75  second=65  amount=-6  
kerning first=75  second=67  amount=-3  
kerning first=75  second=69  amount=-3  
kerning first=75  second=71  amount=-3  
kerning first=75  second=81  amount=-3  
kerning first=75  second=83  amount=-3  
kerning first=75  second=74  amount=-6  
kerning first=75  second=84  amount=-6  
kerning first=75  second=88  amount=-3  
kerning first=75  second=97  amount=-5  
kerning first=75  second=99  amount=-5  
kerning first=75  second=100 amount=-5  
kerning first=75  second=101 amount=-5  
kerning first=75  second=103 amount=-5  
kerning first=75  second=111 amount=-5  
kerning first=75  second=113 amount=-5  
kerning first=75  second=115 amount=-5  
kerning first=75  second=106 amount=2   
kerning first=75  second=109 amount=-3  
kerning first=75  second=110 amount=-3  
kerning first=75  second=112 amount=-3  
kerning first=75  second=114 amount=-3  
kerning first=75  second=117 amount=-3  
kerning first=75  second=118 amount=-3  
kerning first=75  second=119 amount=-3  
kerning first=75  second=121 amount=-3  
kerning first=75  second=120 amount=-3  
kerning first=76  second=67  amount=-3  
kerning first=76  second=69  amount=-3  
kerning first=76  second=71  amount=-3  
kerning first=76  second=81  amount=-3  
kerning first=76  second=83  amount=-3  
kerning first=76  second=74  amount=1   
kerning first=76  second=84  amount=-10 
kerning first=76  second=97  amount=-6  
kerning first=76  second=99  amount=-6  
kerning first=76  second=100 amount=-6  
kerning first=76  second=101 amount=-6  
kerning first=76  second=103 amount=-6  
kerning first=76  second=111 amount=-6  
kerning first=76  second=113 amount=-6  
kerning first=76  second=115 amount=-6  
kerning first=76  second=98  amount=3   
kerning first=76  second=102 amount=3   
kerning first=76  second=104 amount=3   
kerning first=76  second=107 amount=3   
kerning first=76  second=108 amount=3   
kerning first=76  second=116 amount=3   
kerning first=76  second=105 amount=2   
kerning first=76  second=106 amount=5   
kerning first=76  second=109 amount=3   
kerning first=76  second=110 amount=3   
kerning first=76  second=112 amount=3   
kerning first=76  second=114 amount=3   
kerning first=76  second=117 amount=3   
kerning first=76  second=118 amount=3   
kerning first=76  second=119 amount=3   
kerning first=76  second=121 amount=3   
kerning first=80  second=65  amount=-12 
kerning first=80  second=74  amount=-14 
kerning first=80  second=84  amount=-8  
kerning first=80  second=88  amount=-8  
kerning first=80  second=97  amount=-3  
kerning first=80  second=99  amount=-3  
kerning first=80  second=100 amount=-3  
kerning first=80  second=101 amount=-3  
kerning first=80  second=103 amount=-3  
kerning first=80  second=111 amount=-3  
kerning first=80  second=113 amount=-3  
kerning first=80  second=115 amount=-3  
kerning first=80  second=106 amount=2   
kerning first=80  second=122 amount=-3  
kerning first=81  second=65  amount=-6  
kerning first=81  second=74  amount=-3  
kerning first=81  second=84  amount=-10 
kerning first=81  second=88  amount=-10 
kerning first=81  second=97  amount=-2  
kerning first=81  second=99  amount=-2  
kerning first=81  second=100 amount=-2  
kerning first=81  second=101 amount=-2  
kerning first=81  second=103 amount=-2  
kerning first=81  second=111 amount=-2  
kerning first=81  second=113 amount=-2  
kerning first=81  second=115 amount=-2  
kerning first=81  second=105 amount=2   
kerning first=81  second=106 amount=3   
kerning first=81  second=109 amount=3   
kerning first=81  second=110 amount=3   
kerning first=81  second=112 amount=3   
kerning first=81  second=114 amount=3   
kerning first=81  second=117 amount=3   
kerning first=81  second=118 amount=3   
kerning first=81  second=119 amount=3   
kerning first=81  second=121 amount=3   
kerning first=82  second=65  amount=-6  
kerning first=82  second=74  amount=-6  
kerning first=82  second=84  amount=-6  
kerning first=82  second=88  amount=-3  
kerning first=82  second=97  amount=-2  
kerning first=82  second=99  amount=-2  
kerning first=82  second=100 amount=-2  
kerning first=82  second=101 amount=-2  
kerning first=82  second=103 amount=-2  
kerning first=82  second=111 amount=-2  
kerning first=82  second=113 amount=-2  
kerning first=82  second=115 amount=-2  
kerning first=82  second=106 amount=3   
kerning first=82  second=109 amount=3   
kerning first=82  second=110 amount=3   
kerning first=82  second=112 amount=3   
kerning first=82  second=114 amount=3   
kerning first=82  second=117 amount=3   
kerning first=82  second=118 amount=3   
kerning first=82  second=119 amount=3   
kerning first=82  second=121 amount=3   
kerning first=83  second=65  amount=-6  
kerning first=83  second=74  amount=-3  
kerning first=83  second=84  amount=-10 
kerning first=83  second=88  amount=-10 
kerning first=83  second=97  amount=-2  
kerning first=83  second=99  amount=-2  
kerning first=83  second=100 amount=-2  
kerning first=83  second=101 amount=-2  
kerning first=83  second=103 amount=-2  
kerning first=83  second=111 amount=-2  
kerning first=83  second=113 amount=-2  
kerning first=83  second=115 amount=-2  
kerning first=83  second=105 amount=2   
kerning first=83  second=106 amount=3   
kerning first=83  second=109 amount=3   
kerning first=83  second=110 amount=3   
kerning first=83  second=112 amount=3   
kerning first=83  second=114 amount=3   
kerning first=83  second=117 amount=3   
kerning first=83  second=118 amount=3   
kerning first=83  second=119 amount=3   
kerning first=83  second=121 amount=3   
kerning first=84  second=65  amount=-12 
kerning first=84  second=67  amount=-5  
kerning first=84  second=69  amount=-5  
kerning first=84  second=71  amount=-5  
kerning first=84  second=81  amount=-5  
kerning first=84  second=83  amount=-5  
kerning first=84  second=74  amount=-13 
kerning first=84  second=97  amount=-12 
kerning first=84  second=99  amount=-12 
kerning first=84  second=100 amount=-12 
kerning first=84  second=101 amount=-12 
kerning first=84  second=103 amount=-12 
kerning first=84  second=111 amount=-12 
kerning first=84  second=113 amount=-12 
kerning first=84  second=115 amount=-12 
kerning first=84  second=98  amount=2   
kerning first=84  second=102 amount=2   
kerning first=84  second=104 amount=2   
kerning first=84  second=107 amount=2   
kerning first=84  second=108 amount=2   
kerning first=84  second=116 amount=2   
kerning first=84  second=105 amount=3   
kerning first=84  second=106 amount=2   
kerning first=84  second=109 amount=-6  
kerning first=84  second=110 amount=-6  
kerning first=84  second=112 amount=-6  
kerning first=84  second=114 amount=-6  
kerning first=84  second=117 amount=-6  
kerning first=84  second=118 amount=-6  
kerning first=84  second=119 amount=-6  
kerning first=84  second=121 amount=-6  
kerning first=84  second=120 amount=-12 
kerning first=84  second=122 amount=-6  
kerning first=88  second=65  amount=-3  
kerning first=88  second=84  amount=-6  
kerning first=88  second=88  amount=-3  
kerning first=88  second=97  amount=-5  
kerning first=88  second=99  amount=-5  
kerning first=88  second=100 amount=-5  
kerning first=88  second=101 amount=-5  
kerning first=88  second=103 amount=-5  
kerning first=88  second=111 amount=-5  
kerning first=88  second=113 amount=-5  
kerning first=88  second=115 amount=-5  
kerning first=88  second=106 amount=5   
kerning first=88  second=109 amount=3   
kerning first=88  second=110 amount=3   
kerning first=88  second=112 amount=3   
kerning first=88  second=114 amount=3   
kerning first=88  second=117 amount=3   
kerning first=88  second=118 amount=3   
kerning first=88  second=119 amount=3   
kerning first=88  second=121 amount=3   
kerning first=88  second=122 amount=3   
kerning first=97  second=84  amount=-12 
kerning first=97  second=88  amount=-2  
kerning first=97  second=98  amount=2   
kerning first=97  second=102 amount=2   
kerning first=97  second=104 amount=2   
kerning first=97  second=107 amount=2   
kerning first=97  second=108 amount=2   
kerning first=97  second=116 amount=2   
kerning first=97  second=105 amount=2   
kerning first=97  second=106 amount=3   
kerning first=97  second=109 amount=3   
kerning first=97  second=110 amount=3   
kerning first=97  second=112 amount=3   
kerning first=97  second=114 amount=3   
kerning first=97  second=117 amount=3   
kerning first=97  second=118 amount=3   
kerning first=97  second=119 amount=3   
kerning first=97  second=121 amount=3   
kerning first=97  second=120 amount=1   
kerning first=97  second=122 amount=3   
kerning first=98  second=65  amount=-5  
kerning first=98  second=74  amount=-6  
kerning first=98  second=84  amount=-13 
kerning first=98  second=88  amount=-10 
kerning first=98  second=106 amount=1   
kerning first=98  second=120 amount=-3  
kerning first=99  second=65  amount=-5  
kerning first=99  second=74  amount=-6  
kerning first=99  second=84  amount=-13 
kerning first=99  second=88  amount=-10 
kerning first=99  second=106 amount=1   
kerning first=99  second=120 amount=-3  
kerning first=100 second=66  amount=2   
kerning first=100 second=68  amount=2   
kerning first=100 second=74  amount=1   
kerning first=100 second=84  amount=-6  
kerning first=100 second=98  amount=3   
kerning first=100 second=102 amount=3   
kerning first=100 second=104 amount=3   
kerning first=100 second=107 amount=3   
kerning first=100 second=108 amount=3   
kerning first=100 second=116 amount=3   
kerning first=100 second=105 amount=4   
kerning first=100 second=106 amount=5   
kerning first=100 second=109 amount=4   
kerning first=100 second=110 amount=4   
kerning first=100 second=112 amount=4   
kerning first=100 second=114 amount=4   
kerning first=100 second=117 amount=4   
kerning first=100 second=118 amount=4   
kerning first=100 second=119 amount=4   
kerning first=100 second=121 amount=4   
kerning first=100 second=120 amount=3   
kerning first=100 second=122 amount=3   
kerning first=101 second=65  amount=-5  
kerning first=101 second=74  amount=-6  
kerning first=101 second=84  amount=-13 
kerning first=101 second=88  amount=-10 
kerning first=101 second=106 amount=1   
kerning first=101 second=120 amount=-3  
kerning first=102 second=65  amount=-6  
kerning first=102 second=74  amount=-12 
kerning first=102 second=97  amount=-10 
kerning first=102 second=99  amount=-10 
kerning first=102 second=100 amount=-10 
kerning first=102 second=101 amount=-10 
kerning first=102 second=103 amount=-10 
kerning first=102 second=111 amount=-10 
kerning first=102 second=113 amount=-10 
kerning first=102 second=115 amount=-10 
kerning first=102 second=105 amount=3   
kerning first=102 second=106 amount=3   
kerning first=102 second=120 amount=-6  
kerning first=102 second=122 amount=-3  
kerning first=103 second=84  amount=-12 
kerning first=103 second=88  amount=-2  
kerning first=103 second=98  amount=2   
kerning first=103 second=102 amount=2   
kerning first=103 second=104 amount=2   
kerning first=103 second=107 amount=2   
kerning first=103 second=108 amount=2   
kerning first=103 second=116 amount=2   
kerning first=103 second=105 amount=3   
kerning first=103 second=106 amount=5   
kerning first=103 second=109 amount=3   
kerning first=103 second=110 amount=3   
kerning first=103 second=112 amount=3   
kerning first=103 second=114 amount=3   
kerning first=103 second=117 amount=3   
kerning first=103 second=118 amount=3   
kerning first=103 second=119 amount=3   
kerning first=103 second=121 amount=3   
kerning first=103 second=120 amount=1   
kerning first=104 second=84  amount=-10 
kerning first=104 second=88  amount=-3  
kerning first=104 second=106 amount=3   
kerning first=104 second=109 amount=3   
kerning first=104 second=110 amount=3   
kerning first=104 second=112 amount=3   
kerning first=104 second=114 amount=3   
kerning first=104 second=117 amount=3   
kerning first=104 second=118 amount=3   
kerning first=104 second=119 amount=3   
kerning first=104 second=121 amount=3   
kerning first=104 second=122 amount=2   
kerning first=105 second=66  amount=2   
kerning first=105 second=68  amount=2   
kerning first=105 second=74  amount=1   
kerning first=105 second=84  amount=-6  
kerning first=105 second=88  amount=-2  
kerning first=105 second=98  amount=3   
kerning first=105 second=102 amount=3   
kerning first=105 second=104 amount=3   
kerning first=105 second=107 amount=3   
kerning first=105 second=108 amount=3   
kerning first=105 second=116 amount=3   
kerning first=105 second=105 amount=3   
kerning first=105 second=106 amount=4   
kerning first=105 second=109 amount=3   
kerning first=105 second=110 amount=3   
kerning first=105 second=112 amount=3   
kerning first=105 second=114 amount=3   
kerning first=105 second=117 amount=3   
kerning first=105 second=118 amount=3   
kerning first=105 second=119 amount=3   
kerning first=105 second=121 amount=3   
kerning first=105 second=122 amount=3   
kerning first=108 second=66  amount=2   
kerning first=108 second=68  amount=2   
kerning first=108 second=74  amount=1   
kerning first=108 second=84  amount=-6  
kerning first=108 second=98  amount=3   
kerning first=108 second=102 amount=3   
kerning first=108 second=104 amount=3   
kerning first=108 second=107 amount=3   
kerning first=108 second=108 amount=3   
kerning first=108 second=116 amount=3   
kerning first=108 second=105 amount=4   
kerning first=108 second=106 amount=5   
kerning first=108 second=109 amount=4   
kerning first=108 second=110 amount=4   
kerning first=108 second=112 amount=4   
kerning first=108 second=114 amount=4   
kerning first=108 second=117 amount=4   
kerning first=108 second=118 amount=4   
kerning first=108 second=119 amount=4   
kerning first=108 second=121 amount=4   
kerning first=108 second=120 amount=3   
kerning first=108 second=122 amount=3   
kerning first=109 second=84  amount=-10 
kerning first=109 second=88  amount=-3  
kerning first=109 second=106 amount=3   
kerning first=109 second=109 amount=3   
kerning first=109 second=110 amount=3   
kerning first=109 second=112 amount=3   
kerning first=109 second=114 amount=3   
kerning first=109 second=117 amount=3   
kerning first=109 second=118 amount=3   
kerning first=109 second=119 amount=3   
kerning first=109 second=121 amount=3   
kerning first=109 second=122 amount=2   
kerning first=110 second=84  amount=-10 
kerning first=110 second=88  amount=-3  
kerning first=110 second=106 amount=3   
kerning first=110 second=109 amount=3   
kerning first=110 second=110 amount=3   
kerning first=110 second=112 amount=3   
kerning first=110 second=114 amount=3   
kerning first=110 second=117 amount=3   
kerning first=110 second=118 amount=3   
kerning first=110 second=119 amount=3   
kerning first=110 second=121 amount=3   
kerning first=110 second=122 amount=2   
kerning first=111 second=65  amount=-5  
kerning first=111 second=74  amount=-6  
kerning first=111 second=84  amount=-13 
kerning first=111 second=88  amount=-10 
kerning first=111 second=106 amount=1   
kerning first=111 second=120 amount=-3  
kerning first=112 second=65  amount=-5  
kerning first=112 second=74  amount=-6  
kerning first=112 second=84  amount=-13 
kerning first=112 second=88  amount=-10 
kerning first=112 second=106 amount=1   
kerning first=112 second=120 amount=-3  
kerning first=113 second=84  amount=-12 
kerning first=113 second=88  amount=-2  
kerning first=113 second=98  amount=2   
kerning first=113 second=102 amount=2   
kerning first=113 second=104 amount=2   
kerning first=113 second=107 amount=2   
kerning first=113 second=108 amount=2   
kerning first=113 second=116 amount=2   
kerning first=113 second=105 amount=3   
kerning first=113 second=106 amount=5   
kerning first=113 second=109 amount=3   
kerning first=113 second=110 amount=3   
kerning first=113 second=112 amount=3   
kerning first=113 second=114 amount=3   
kerning first=113 second=117 amount=3   
kerning first=113 second=118 amount=3   
kerning first=113 second=119 amount=3   
kerning first=113 second=121 amount=3   
kerning first=114 second=65  amount=-6  
kerning first=114 second=74  amount=-12 
kerning first=114 second=84  amount=-8  
kerning first=114 second=88  amount=-10 
kerning first=114 second=97  amount=-3  
kerning first=114 second=99  amount=-3  
kerning first=114 second=100 amount=-3  
kerning first=114 second=101 amount=-3  
kerning first=114 second=103 amount=-3  
kerning first=114 second=111 amount=-3  
kerning first=114 second=113 amount=-3  
kerning first=114 second=115 amount=-3  
kerning first=114 second=105 amount=3   
kerning first=114 second=106 amount=3   
kerning first=114 second=109 amount=2   
kerning first=114 second=110 amount=2   
kerning first=114 second=112 amount=2   
kerning first=114 second=114 amount=2   
kerning first=114 second=117 amount=2   
kerning first=114 second=118 amount=2   
kerning first=114 second=119 amount=2   
kerning first=114 second=121 amount=2   
kerning first=114 second=120 amount=2   
kerning first=114 second=122 amount=1   
kerning first=115 second=65  amount=-5  
kerning first=115 second=74  amount=-6  
kerning first=115 second=84  amount=-13 
kerning first=115 second=88  amount=-10 
kerning first=115 second=106 amount=1   
kerning first=115 second=120 amount=-3  
kerning first=116 second=66  amount=5   
kerning first=116 second=68  amount=5   
kerning first=116 second=67  amount=3   
kerning first=116 second=69  amount=3   
kerning first=116 second=71  amount=3   
kerning first=116 second=81  amount=3   
kerning first=116 second=83  amount=3   
kerning first=116 second=84  amount=2   
kerning first=116 second=88  amount=2   
kerning first=116 second=98  amount=3   
kerning first=116 second=102 amount=3   
kerning first=116 second=104 amount=3   
kerning first=116 second=107 amount=3   
kerning first=116 second=108 amount=3   
kerning first=116 second=116 amount=3   
kerning first=116 second=105 amount=5   
kerning first=116 second=106 amount=5   
kerning first=116 second=109 amount=5   
kerning first=116 second=110 amount=5   
kerning first=116 second=112 amount=5   
kerning first=116 second=114 amount=5   
kerning first=116 second=117 amount=5   
kerning first=116 second=118 amount=5   
kerning first=116 second=119 amount=5   
kerning first=116 second=121 amount=5   
kerning first=116 second=120 amount=3   
kerning first=116 second=122 amount=5   
kerning first=117 second=84  amount=-12 
kerning first=117 second=88  amount=-2  
kerning first=117 second=98  amount=2   
kerning first=117 second=102 amount=2   
kerning first=117 second=104 amount=2   
kerning first=117 second=107 amount=2   
kerning first=117 second=108 amount=2   
kerning first=117 second=116 amount=2   
kerning first=117 second=105 amount=2   
kerning first=117 second=106 amount=3   
kerning first=117 second=109 amount=3   
kerning first=117 second=110 amount=3   
kerning first=117 second=112 amount=3   
kerning first=117 second=114 amount=3   
kerning first=117 second=117 amount=3   
kerning first=117 second=118 amount=3   
kerning first=117 second=119 amount=3   
kerning first=117 second=121 amount=3   
kerning first=117 second=120 amount=1   
kerning first=117 second=122 amount=3   
kerning first=118 second=65  amount=-5  
kerning first=118 second=74  amount=-6  
kerning first=118 second=84  amount=-13 
kerning first=118 second=88  amount=-10 
kerning first=118 second=106 amount=1   
kerning first=118 second=120 amount=-3  
kerning first=119 second=65  amount=-5  
kerning first=119 second=74  amount=-6  
kerning first=119 second=84  amount=-13 
kerning first=119 second=88  amount=-10 
kerning first=119 second=106 amount=1   
kerning first=119 second=120 amount=-3  
kerning first=121 second=84  amount=-12 
kerning first=121 second=88  amount=-2  
kerning first=121 second=98  amount=2   
kerning first=121 second=102 amount=2   
kerning first=121 second=104 amount=2   
kerning first=121 second=107 amount=2   
kerning first=121 second=108 amount=2   
kerning first=121 second=116 amount=2   
kerning first=121 second=105 amount=3   
kerning first=121 second=106 amount=5   
kerning first=121 second=109 amount=3   
kerning first=121 second=110 amount=3   
kerning first=121 second=112 amount=3   
kerning first=121 second=114 amount=3   
kerning first=121 second=117 amount=3   
kerning first=121 second=118 amount=3   
kerning first=121 second=119 amount=3   
kerning first=121 second=121 amount=3   
kerning first=121 second=120 amount=1   
kerning first=122 second=66  amount=2   
kerning first=122 second=68  amount=2   
kerning first=122 second=84  amount=-3  
kerning first=122 second=105 amount=5   
kerning first=122 second=106 amount=5   
kerning first=122 second=109 amount=5   
kerning first=122 second=110 amount=5   
kerning first=122 second=112 amount=5   
kerning first=122 second=114 amount=5   
kerning first=122 second=117 amount=5   
kerning first=122 second=118 amount=5   
kerning first=122 second=119 amount=5   
kerning first=122 second=121 amount=5   
kerning first=122 second=120 amount=3   
kerning first=122 second=122 amount=2   
