info face="Cursive Serif" size=40 bold=0 italic=0 charset="" unicode=1 stretchH=100 smooth=1 aa=1 padding=0,0,0,0 spacing=1,1 outline=0
common lineHeight=40 base=31 scaleW=256 scaleH=256 pages=1 packed=0 alphaChnl=1 redChnl=0 greenChnl=0 blueChnl=0
page id=0 file="levelIconFont_0.png"
chars count=95
char id=32   x=119   y=32    width=3     height=1     xoffset=-1    yoffset=39    xadvance=13    page=0  chnl=15
char id=33   x=244   y=0     width=11    height=24    xoffset=3     yoffset=7     xadvance=11    page=0  chnl=15
char id=34   x=229   y=150   width=9     height=7     xoffset=7     yoffset=6     xadvance=13    page=0  chnl=15
char id=35   x=159   y=155   width=19    height=14    xoffset=4     yoffset=12    xadvance=22    page=0  chnl=15
char id=36   x=35    y=0     width=20    height=34    xoffset=3     yoffset=2     xadvance=22    page=0  chnl=15
char id=37   x=72    y=86    width=22    height=24    xoffset=5     yoffset=7     xadvance=27    page=0  chnl=15
char id=38   x=221   y=52    width=23    height=24    xoffset=3     yoffset=7     xadvance=25    page=0  chnl=15
char id=39   x=249   y=75    width=5     height=7     xoffset=7     yoffset=6     xadvance=9     page=0  chnl=15
char id=40   x=106   y=0     width=12    height=34    xoffset=5     yoffset=2     xadvance=11    page=0  chnl=15
char id=41   x=93    y=0     width=12    height=34    xoffset=-1    yoffset=2     xadvance=11    page=0  chnl=15
char id=42   x=141   y=155   width=17    height=16    xoffset=7     yoffset=6     xadvance=22    page=0  chnl=15
char id=43   x=188   y=152   width=15    height=12    xoffset=5     yoffset=13    xadvance=20    page=0  chnl=15
char id=44   x=220   y=150   width=8     height=8     xoffset=1     yoffset=27    xadvance=11    page=0  chnl=15
char id=45   x=145   y=83    width=15    height=2     xoffset=5     yoffset=18    xadvance=20    page=0  chnl=15
char id=46   x=249   y=90    width=6     height=4     xoffset=3     yoffset=27    xadvance=11    page=0  chnl=15
char id=47   x=158   y=0     width=25    height=29    xoffset=-1    yoffset=4     xadvance=17    page=0  chnl=15
char id=48   x=118   y=86    width=22    height=24    xoffset=4     yoffset=7     xadvance=24    page=0  chnl=15
char id=49   x=230   y=26    width=13    height=25    xoffset=1     yoffset=6     xadvance=11    page=0  chnl=15
char id=50   x=163   y=83    width=21    height=24    xoffset=2     yoffset=7     xadvance=21    page=0  chnl=15
char id=51   x=105   y=111   width=19    height=24    xoffset=3     yoffset=7     xadvance=21    page=0  chnl=15
char id=52   x=169   y=30    width=20    height=25    xoffset=1     yoffset=6     xadvance=19    page=0  chnl=15
char id=53   x=141   y=86    width=21    height=24    xoffset=3     yoffset=7     xadvance=21    page=0  chnl=15
char id=54   x=0     y=112   width=20    height=24    xoffset=4     yoffset=7     xadvance=22    page=0  chnl=15
char id=55   x=205   y=106   width=18    height=24    xoffset=4     yoffset=7     xadvance=16    page=0  chnl=15
char id=56   x=125   y=111   width=19    height=24    xoffset=2     yoffset=7     xadvance=20    page=0  chnl=15
char id=57   x=84    y=111   width=20    height=24    xoffset=4     yoffset=7     xadvance=22    page=0  chnl=15
char id=58   x=179   y=152   width=8     height=14    xoffset=3     yoffset=17    xadvance=11    page=0  chnl=15
char id=59   x=90    y=156   width=10    height=18    xoffset=1     yoffset=17    xadvance=11    page=0  chnl=15
char id=60   x=121   y=155   width=19    height=17    xoffset=5     yoffset=10    xadvance=22    page=0  chnl=15
char id=61   x=239   y=150   width=16    height=6     xoffset=5     yoffset=16    xadvance=20    page=0  chnl=15
char id=62   x=101   y=155   width=19    height=17    xoffset=4     yoffset=10    xadvance=22    page=0  chnl=15
char id=63   x=19    y=137   width=18    height=24    xoffset=5     yoffset=7     xadvance=20    page=0  chnl=15
char id=64   x=105   y=35    width=21    height=25    xoffset=2     yoffset=13    xadvance=22    page=0  chnl=15
char id=65   x=64    y=61    width=27    height=24    xoffset=0     yoffset=7     xadvance=24    page=0  chnl=15
char id=66   x=24    y=87    width=23    height=24    xoffset=1     yoffset=7     xadvance=23    page=0  chnl=15
char id=67   x=21    y=112   width=20    height=24    xoffset=4     yoffset=7     xadvance=22    page=0  chnl=15
char id=68   x=92    y=61    width=26    height=24    xoffset=1     yoffset=7     xadvance=25    page=0  chnl=15
char id=69   x=145   y=111   width=19    height=24    xoffset=3     yoffset=7     xadvance=21    page=0  chnl=15
char id=70   x=171   y=56    width=24    height=24    xoffset=0     yoffset=7     xadvance=20    page=0  chnl=15
char id=71   x=42    y=112   width=20    height=24    xoffset=4     yoffset=7     xadvance=23    page=0  chnl=15
char id=72   x=34    y=62    width=29    height=24    xoffset=0     yoffset=7     xadvance=23    page=0  chnl=15
char id=73   x=56    y=137   width=13    height=24    xoffset=0     yoffset=7     xadvance=11    page=0  chnl=15
char id=74   x=185   y=106   width=19    height=24    xoffset=0     yoffset=7     xadvance=17    page=0  chnl=15
char id=75   x=31    y=36    width=26    height=25    xoffset=0     yoffset=7     xadvance=24    page=0  chnl=15
char id=76   x=0     y=87    width=23    height=24    xoffset=0     yoffset=7     xadvance=20    page=0  chnl=15
char id=77   x=207   y=0     width=36    height=25    xoffset=0     yoffset=7     xadvance=32    page=0  chnl=15
char id=78   x=0     y=36    width=30    height=25    xoffset=0     yoffset=7     xadvance=24    page=0  chnl=15
char id=79   x=95    y=86    width=22    height=24    xoffset=4     yoffset=7     xadvance=24    page=0  chnl=15
char id=80   x=196   y=56    width=24    height=24    xoffset=1     yoffset=7     xadvance=23    page=0  chnl=15
char id=81   x=83    y=35    width=21    height=25    xoffset=4     yoffset=7     xadvance=23    page=0  chnl=15
char id=82   x=58    y=35    width=24    height=25    xoffset=1     yoffset=7     xadvance=24    page=0  chnl=15
char id=83   x=63    y=112   width=20    height=24    xoffset=3     yoffset=7     xadvance=22    page=0  chnl=15
char id=84   x=48    y=87    width=23    height=24    xoffset=4     yoffset=7     xadvance=21    page=0  chnl=15
char id=85   x=185   y=81    width=21    height=24    xoffset=5     yoffset=7     xadvance=24    page=0  chnl=15
char id=86   x=228   y=77    width=20    height=24    xoffset=5     yoffset=7     xadvance=23    page=0  chnl=15
char id=87   x=0     y=62    width=33    height=24    xoffset=5     yoffset=7     xadvance=36    page=0  chnl=15
char id=88   x=145   y=58    width=25    height=24    xoffset=0     yoffset=7     xadvance=20    page=0  chnl=15
char id=89   x=207   y=81    width=20    height=24    xoffset=5     yoffset=7     xadvance=23    page=0  chnl=15
char id=90   x=119   y=61    width=25    height=24    xoffset=1     yoffset=7     xadvance=22    page=0  chnl=15
char id=91   x=56    y=0     width=18    height=34    xoffset=2     yoffset=2     xadvance=13    page=0  chnl=15
char id=92   x=184   y=0     width=11    height=29    xoffset=6     yoffset=4     xadvance=17    page=0  chnl=15
char id=93   x=75    y=0     width=17    height=34    xoffset=-1    yoffset=2     xadvance=13    page=0  chnl=15
char id=94   x=204   y=150   width=15    height=8     xoffset=7     yoffset=6     xadvance=20    page=0  chnl=15
char id=95   x=127   y=58    width=15    height=2     xoffset=2     yoffset=32    xadvance=20    page=0  chnl=15
char id=96   x=249   y=83    width=6     height=6     xoffset=8     yoffset=6     xadvance=13    page=0  chnl=15
char id=97   x=171   y=133   width=19    height=18    xoffset=3     yoffset=13    xadvance=20    page=0  chnl=15
char id=98   x=38    y=137   width=17    height=24    xoffset=4     yoffset=7     xadvance=20    page=0  chnl=15
char id=99   x=55    y=162   width=17    height=18    xoffset=3     yoffset=13    xadvance=19    page=0  chnl=15
char id=100  x=224   y=106   width=18    height=24    xoffset=3     yoffset=7     xadvance=19    page=0  chnl=15
char id=101  x=19    y=162   width=17    height=18    xoffset=3     yoffset=13    xadvance=19    page=0  chnl=15
char id=102  x=119   y=0     width=22    height=31    xoffset=-1    yoffset=7     xadvance=16    page=0  chnl=15
char id=103  x=127   y=32    width=20    height=25    xoffset=2     yoffset=13    xadvance=20    page=0  chnl=15
char id=104  x=165   y=108   width=19    height=24    xoffset=3     yoffset=7     xadvance=20    page=0  chnl=15
char id=105  x=244   y=25    width=9     height=24    xoffset=3     yoffset=7     xadvance=10    page=0  chnl=15
char id=106  x=142   y=0     width=15    height=31    xoffset=-2    yoffset=7     xadvance=10    page=0  chnl=15
char id=107  x=0     y=137   width=18    height=24    xoffset=3     yoffset=7     xadvance=19    page=0  chnl=15
char id=108  x=245   y=50    width=8     height=24    xoffset=3     yoffset=7     xadvance=9     page=0  chnl=15
char id=109  x=70    y=137   width=29    height=18    xoffset=3     yoffset=13    xadvance=30    page=0  chnl=15
char id=110  x=211   y=131   width=19    height=18    xoffset=3     yoffset=13    xadvance=20    page=0  chnl=15
char id=111  x=37    y=162   width=17    height=18    xoffset=3     yoffset=13    xadvance=19    page=0  chnl=15
char id=112  x=148   y=32    width=20    height=25    xoffset=1     yoffset=13    xadvance=20    page=0  chnl=15
char id=113  x=211   y=26    width=18    height=25    xoffset=3     yoffset=13    xadvance=20    page=0  chnl=15
char id=114  x=231   y=131   width=18    height=18    xoffset=3     yoffset=13    xadvance=17    page=0  chnl=15
char id=115  x=73    y=156   width=16    height=18    xoffset=2     yoffset=13    xadvance=17    page=0  chnl=15
char id=116  x=243   y=102   width=12    height=24    xoffset=4     yoffset=7     xadvance=12    page=0  chnl=15
char id=117  x=191   y=131   width=19    height=18    xoffset=3     yoffset=13    xadvance=20    page=0  chnl=15
char id=118  x=0     y=162   width=18    height=18    xoffset=3     yoffset=13    xadvance=20    page=0  chnl=15
char id=119  x=100   y=136   width=28    height=18    xoffset=3     yoffset=13    xadvance=30    page=0  chnl=15
char id=120  x=129   y=136   width=20    height=18    xoffset=0     yoffset=13    xadvance=17    page=0  chnl=15
char id=121  x=190   y=30    width=20    height=25    xoffset=2     yoffset=13    xadvance=20    page=0  chnl=15
char id=122  x=150   y=136   width=20    height=18    xoffset=0     yoffset=13    xadvance=17    page=0  chnl=15
char id=123  x=18    y=0     width=16    height=35    xoffset=3     yoffset=1     xadvance=12    page=0  chnl=15
char id=124  x=196   y=0     width=10    height=29    xoffset=3     yoffset=4     xadvance=11    page=0  chnl=15
char id=125  x=0     y=0     width=17    height=35    xoffset=-1    yoffset=1     xadvance=13    page=0  chnl=15
char id=126  x=73    y=175   width=19    height=5     xoffset=5     yoffset=17    xadvance=23    page=0  chnl=15
kernings count=537
kerning first=65  second=66  amount=-1  
kerning first=65  second=68  amount=-1  
kerning first=65  second=67  amount=-2  
kerning first=65  second=69  amount=-2  
kerning first=65  second=71  amount=-2  
kerning first=65  second=81  amount=-2  
kerning first=65  second=83  amount=-2  
kerning first=65  second=84  amount=-4  
kerning first=65  second=97  amount=-1  
kerning first=65  second=99  amount=-1  
kerning first=65  second=100 amount=-1  
kerning first=65  second=101 amount=-1  
kerning first=65  second=103 amount=-1  
kerning first=65  second=111 amount=-1  
kerning first=65  second=113 amount=-1  
kerning first=65  second=115 amount=-1  
kerning first=65  second=98  amount=-1  
kerning first=65  second=102 amount=-1  
kerning first=65  second=104 amount=-1  
kerning first=65  second=107 amount=-1  
kerning first=65  second=108 amount=-1  
kerning first=65  second=116 amount=-1  
kerning first=65  second=105 amount=-1  
kerning first=65  second=109 amount=-1  
kerning first=65  second=110 amount=-1  
kerning first=65  second=112 amount=-1  
kerning first=65  second=114 amount=-1  
kerning first=65  second=117 amount=-1  
kerning first=65  second=118 amount=-1  
kerning first=65  second=119 amount=-1  
kerning first=65  second=121 amount=-1  
kerning first=65  second=122 amount=-1  
kerning first=66  second=65  amount=-2  
kerning first=66  second=74  amount=-2  
kerning first=66  second=84  amount=-2  
kerning first=66  second=88  amount=-2  
kerning first=66  second=97  amount=-1  
kerning first=66  second=99  amount=-1  
kerning first=66  second=100 amount=-1  
kerning first=66  second=101 amount=-1  
kerning first=66  second=103 amount=-1  
kerning first=66  second=111 amount=-1  
kerning first=66  second=113 amount=-1  
kerning first=66  second=115 amount=-1  
kerning first=66  second=106 amount=1   
kerning first=66  second=120 amount=-1  
kerning first=67  second=65  amount=-2  
kerning first=67  second=74  amount=-1  
kerning first=67  second=84  amount=-2  
kerning first=67  second=88  amount=-2  
kerning first=67  second=106 amount=1   
kerning first=67  second=109 amount=1   
kerning first=67  second=110 amount=1   
kerning first=67  second=112 amount=1   
kerning first=67  second=114 amount=1   
kerning first=67  second=117 amount=1   
kerning first=67  second=118 amount=1   
kerning first=67  second=119 amount=1   
kerning first=67  second=121 amount=1   
kerning first=68  second=65  amount=-2  
kerning first=68  second=74  amount=-2  
kerning first=68  second=84  amount=-2  
kerning first=68  second=88  amount=-2  
kerning first=68  second=97  amount=-1  
kerning first=68  second=99  amount=-1  
kerning first=68  second=100 amount=-1  
kerning first=68  second=101 amount=-1  
kerning first=68  second=103 amount=-1  
kerning first=68  second=111 amount=-1  
kerning first=68  second=113 amount=-1  
kerning first=68  second=115 amount=-1  
kerning first=68  second=106 amount=1   
kerning first=68  second=120 amount=-1  
kerning first=69  second=65  amount=-2  
kerning first=69  second=74  amount=-1  
kerning first=69  second=84  amount=-2  
kerning first=69  second=88  amount=-2  
kerning first=69  second=106 amount=1   
kerning first=69  second=109 amount=1   
kerning first=69  second=110 amount=1   
kerning first=69  second=112 amount=1   
kerning first=69  second=114 amount=1   
kerning first=69  second=117 amount=1   
kerning first=69  second=118 amount=1   
kerning first=69  second=119 amount=1   
kerning first=69  second=121 amount=1   
kerning first=70  second=65  amount=-3  
kerning first=70  second=66  amount=-1  
kerning first=70  second=68  amount=-1  
kerning first=70  second=67  amount=-1  
kerning first=70  second=69  amount=-1  
kerning first=70  second=71  amount=-1  
kerning first=70  second=81  amount=-1  
kerning first=70  second=83  amount=-1  
kerning first=70  second=74  amount=-4  
kerning first=70  second=84  amount=-2  
kerning first=70  second=88  amount=-1  
kerning first=70  second=97  amount=-3  
kerning first=70  second=99  amount=-3  
kerning first=70  second=100 amount=-3  
kerning first=70  second=101 amount=-3  
kerning first=70  second=103 amount=-3  
kerning first=70  second=111 amount=-3  
kerning first=70  second=113 amount=-3  
kerning first=70  second=115 amount=-3  
kerning first=70  second=98  amount=-1  
kerning first=70  second=102 amount=-1  
kerning first=70  second=104 amount=-1  
kerning first=70  second=107 amount=-1  
kerning first=70  second=108 amount=-1  
kerning first=70  second=116 amount=-1  
kerning first=70  second=109 amount=-1  
kerning first=70  second=110 amount=-1  
kerning first=70  second=112 amount=-1  
kerning first=70  second=114 amount=-1  
kerning first=70  second=117 amount=-1  
kerning first=70  second=118 amount=-1  
kerning first=70  second=119 amount=-1  
kerning first=70  second=121 amount=-1  
kerning first=70  second=120 amount=-2  
kerning first=70  second=122 amount=-1  
kerning first=71  second=65  amount=-2  
kerning first=71  second=74  amount=-1  
kerning first=71  second=84  amount=-2  
kerning first=71  second=88  amount=-2  
kerning first=71  second=106 amount=1   
kerning first=71  second=109 amount=1   
kerning first=71  second=110 amount=1   
kerning first=71  second=112 amount=1   
kerning first=71  second=114 amount=1   
kerning first=71  second=117 amount=1   
kerning first=71  second=118 amount=1   
kerning first=71  second=119 amount=1   
kerning first=71  second=121 amount=1   
kerning first=75  second=65  amount=-2  
kerning first=75  second=67  amount=-1  
kerning first=75  second=69  amount=-1  
kerning first=75  second=71  amount=-1  
kerning first=75  second=81  amount=-1  
kerning first=75  second=83  amount=-1  
kerning first=75  second=74  amount=-2  
kerning first=75  second=84  amount=-2  
kerning first=75  second=88  amount=-1  
kerning first=75  second=97  amount=-1  
kerning first=75  second=99  amount=-1  
kerning first=75  second=100 amount=-1  
kerning first=75  second=101 amount=-1  
kerning first=75  second=103 amount=-1  
kerning first=75  second=111 amount=-1  
kerning first=75  second=113 amount=-1  
kerning first=75  second=115 amount=-1  
kerning first=75  second=109 amount=-1  
kerning first=75  second=110 amount=-1  
kerning first=75  second=112 amount=-1  
kerning first=75  second=114 amount=-1  
kerning first=75  second=117 amount=-1  
kerning first=75  second=118 amount=-1  
kerning first=75  second=119 amount=-1  
kerning first=75  second=121 amount=-1  
kerning first=75  second=120 amount=-1  
kerning first=76  second=67  amount=-1  
kerning first=76  second=69  amount=-1  
kerning first=76  second=71  amount=-1  
kerning first=76  second=81  amount=-1  
kerning first=76  second=83  amount=-1  
kerning first=76  second=84  amount=-2  
kerning first=76  second=97  amount=-2  
kerning first=76  second=99  amount=-2  
kerning first=76  second=100 amount=-2  
kerning first=76  second=101 amount=-2  
kerning first=76  second=103 amount=-2  
kerning first=76  second=111 amount=-2  
kerning first=76  second=113 amount=-2  
kerning first=76  second=115 amount=-2  
kerning first=76  second=98  amount=1   
kerning first=76  second=102 amount=1   
kerning first=76  second=104 amount=1   
kerning first=76  second=107 amount=1   
kerning first=76  second=108 amount=1   
kerning first=76  second=116 amount=1   
kerning first=76  second=106 amount=1   
kerning first=76  second=109 amount=1   
kerning first=76  second=110 amount=1   
kerning first=76  second=112 amount=1   
kerning first=76  second=114 amount=1   
kerning first=76  second=117 amount=1   
kerning first=76  second=118 amount=1   
kerning first=76  second=119 amount=1   
kerning first=76  second=121 amount=1   
kerning first=80  second=65  amount=-3  
kerning first=80  second=74  amount=-4  
kerning first=80  second=84  amount=-2  
kerning first=80  second=88  amount=-2  
kerning first=80  second=97  amount=-1  
kerning first=80  second=99  amount=-1  
kerning first=80  second=100 amount=-1  
kerning first=80  second=101 amount=-1  
kerning first=80  second=103 amount=-1  
kerning first=80  second=111 amount=-1  
kerning first=80  second=113 amount=-1  
kerning first=80  second=115 amount=-1  
kerning first=80  second=122 amount=-1  
kerning first=81  second=65  amount=-2  
kerning first=81  second=74  amount=-1  
kerning first=81  second=84  amount=-2  
kerning first=81  second=88  amount=-2  
kerning first=81  second=106 amount=1   
kerning first=81  second=109 amount=1   
kerning first=81  second=110 amount=1   
kerning first=81  second=112 amount=1   
kerning first=81  second=114 amount=1   
kerning first=81  second=117 amount=1   
kerning first=81  second=118 amount=1   
kerning first=81  second=119 amount=1   
kerning first=81  second=121 amount=1   
kerning first=82  second=65  amount=-2  
kerning first=82  second=74  amount=-2  
kerning first=82  second=84  amount=-2  
kerning first=82  second=88  amount=-1  
kerning first=82  second=106 amount=1   
kerning first=82  second=109 amount=1   
kerning first=82  second=110 amount=1   
kerning first=82  second=112 amount=1   
kerning first=82  second=114 amount=1   
kerning first=82  second=117 amount=1   
kerning first=82  second=118 amount=1   
kerning first=82  second=119 amount=1   
kerning first=82  second=121 amount=1   
kerning first=83  second=65  amount=-2  
kerning first=83  second=74  amount=-1  
kerning first=83  second=84  amount=-2  
kerning first=83  second=88  amount=-2  
kerning first=83  second=106 amount=1   
kerning first=83  second=109 amount=1   
kerning first=83  second=110 amount=1   
kerning first=83  second=112 amount=1   
kerning first=83  second=114 amount=1   
kerning first=83  second=117 amount=1   
kerning first=83  second=118 amount=1   
kerning first=83  second=119 amount=1   
kerning first=83  second=121 amount=1   
kerning first=84  second=65  amount=-3  
kerning first=84  second=67  amount=-1  
kerning first=84  second=69  amount=-1  
kerning first=84  second=71  amount=-1  
kerning first=84  second=81  amount=-1  
kerning first=84  second=83  amount=-1  
kerning first=84  second=74  amount=-3  
kerning first=84  second=97  amount=-3  
kerning first=84  second=99  amount=-3  
kerning first=84  second=100 amount=-3  
kerning first=84  second=101 amount=-3  
kerning first=84  second=103 amount=-3  
kerning first=84  second=111 amount=-3  
kerning first=84  second=113 amount=-3  
kerning first=84  second=115 amount=-3  
kerning first=84  second=105 amount=1   
kerning first=84  second=109 amount=-2  
kerning first=84  second=110 amount=-2  
kerning first=84  second=112 amount=-2  
kerning first=84  second=114 amount=-2  
kerning first=84  second=117 amount=-2  
kerning first=84  second=118 amount=-2  
kerning first=84  second=119 amount=-2  
kerning first=84  second=121 amount=-2  
kerning first=84  second=120 amount=-3  
kerning first=84  second=122 amount=-2  
kerning first=88  second=65  amount=-1  
kerning first=88  second=84  amount=-2  
kerning first=88  second=88  amount=-1  
kerning first=88  second=97  amount=-1  
kerning first=88  second=99  amount=-1  
kerning first=88  second=100 amount=-1  
kerning first=88  second=101 amount=-1  
kerning first=88  second=103 amount=-1  
kerning first=88  second=111 amount=-1  
kerning first=88  second=113 amount=-1  
kerning first=88  second=115 amount=-1  
kerning first=88  second=106 amount=1   
kerning first=88  second=109 amount=1   
kerning first=88  second=110 amount=1   
kerning first=88  second=112 amount=1   
kerning first=88  second=114 amount=1   
kerning first=88  second=117 amount=1   
kerning first=88  second=118 amount=1   
kerning first=88  second=119 amount=1   
kerning first=88  second=121 amount=1   
kerning first=88  second=122 amount=1   
kerning first=97  second=84  amount=-3  
kerning first=97  second=106 amount=1   
kerning first=97  second=109 amount=1   
kerning first=97  second=110 amount=1   
kerning first=97  second=112 amount=1   
kerning first=97  second=114 amount=1   
kerning first=97  second=117 amount=1   
kerning first=97  second=118 amount=1   
kerning first=97  second=119 amount=1   
kerning first=97  second=121 amount=1   
kerning first=97  second=122 amount=1   
kerning first=98  second=65  amount=-1  
kerning first=98  second=74  amount=-2  
kerning first=98  second=84  amount=-3  
kerning first=98  second=88  amount=-2  
kerning first=98  second=120 amount=-1  
kerning first=99  second=65  amount=-1  
kerning first=99  second=74  amount=-2  
kerning first=99  second=84  amount=-3  
kerning first=99  second=88  amount=-2  
kerning first=99  second=120 amount=-1  
kerning first=100 second=84  amount=-2  
kerning first=100 second=98  amount=1   
kerning first=100 second=102 amount=1   
kerning first=100 second=104 amount=1   
kerning first=100 second=107 amount=1   
kerning first=100 second=108 amount=1   
kerning first=100 second=116 amount=1   
kerning first=100 second=105 amount=1   
kerning first=100 second=106 amount=1   
kerning first=100 second=109 amount=1   
kerning first=100 second=110 amount=1   
kerning first=100 second=112 amount=1   
kerning first=100 second=114 amount=1   
kerning first=100 second=117 amount=1   
kerning first=100 second=118 amount=1   
kerning first=100 second=119 amount=1   
kerning first=100 second=121 amount=1   
kerning first=100 second=120 amount=1   
kerning first=100 second=122 amount=1   
kerning first=101 second=65  amount=-1  
kerning first=101 second=74  amount=-2  
kerning first=101 second=84  amount=-3  
kerning first=101 second=88  amount=-2  
kerning first=101 second=120 amount=-1  
kerning first=102 second=65  amount=-2  
kerning first=102 second=74  amount=-3  
kerning first=102 second=97  amount=-2  
kerning first=102 second=99  amount=-2  
kerning first=102 second=100 amount=-2  
kerning first=102 second=101 amount=-2  
kerning first=102 second=103 amount=-2  
kerning first=102 second=111 amount=-2  
kerning first=102 second=113 amount=-2  
kerning first=102 second=115 amount=-2  
kerning first=102 second=105 amount=1   
kerning first=102 second=106 amount=1   
kerning first=102 second=120 amount=-2  
kerning first=102 second=122 amount=-1  
kerning first=103 second=84  amount=-3  
kerning first=103 second=105 amount=1   
kerning first=103 second=106 amount=1   
kerning first=103 second=109 amount=1   
kerning first=103 second=110 amount=1   
kerning first=103 second=112 amount=1   
kerning first=103 second=114 amount=1   
kerning first=103 second=117 amount=1   
kerning first=103 second=118 amount=1   
kerning first=103 second=119 amount=1   
kerning first=103 second=121 amount=1   
kerning first=104 second=84  amount=-2  
kerning first=104 second=88  amount=-1  
kerning first=104 second=106 amount=1   
kerning first=104 second=109 amount=1   
kerning first=104 second=110 amount=1   
kerning first=104 second=112 amount=1   
kerning first=104 second=114 amount=1   
kerning first=104 second=117 amount=1   
kerning first=104 second=118 amount=1   
kerning first=104 second=119 amount=1   
kerning first=104 second=121 amount=1   
kerning first=105 second=84  amount=-2  
kerning first=105 second=98  amount=1   
kerning first=105 second=102 amount=1   
kerning first=105 second=104 amount=1   
kerning first=105 second=107 amount=1   
kerning first=105 second=108 amount=1   
kerning first=105 second=116 amount=1   
kerning first=105 second=105 amount=1   
kerning first=105 second=106 amount=1   
kerning first=105 second=109 amount=1   
kerning first=105 second=110 amount=1   
kerning first=105 second=112 amount=1   
kerning first=105 second=114 amount=1   
kerning first=105 second=117 amount=1   
kerning first=105 second=118 amount=1   
kerning first=105 second=119 amount=1   
kerning first=105 second=121 amount=1   
kerning first=105 second=122 amount=1   
kerning first=108 second=84  amount=-2  
kerning first=108 second=98  amount=1   
kerning first=108 second=102 amount=1   
kerning first=108 second=104 amount=1   
kerning first=108 second=107 amount=1   
kerning first=108 second=108 amount=1   
kerning first=108 second=116 amount=1   
kerning first=108 second=105 amount=1   
kerning first=108 second=106 amount=1   
kerning first=108 second=109 amount=1   
kerning first=108 second=110 amount=1   
kerning first=108 second=112 amount=1   
kerning first=108 second=114 amount=1   
kerning first=108 second=117 amount=1   
kerning first=108 second=118 amount=1   
kerning first=108 second=119 amount=1   
kerning first=108 second=121 amount=1   
kerning first=108 second=120 amount=1   
kerning first=108 second=122 amount=1   
kerning first=109 second=84  amount=-2  
kerning first=109 second=88  amount=-1  
kerning first=109 second=106 amount=1   
kerning first=109 second=109 amount=1   
kerning first=109 second=110 amount=1   
kerning first=109 second=112 amount=1   
kerning first=109 second=114 amount=1   
kerning first=109 second=117 amount=1   
kerning first=109 second=118 amount=1   
kerning first=109 second=119 amount=1   
kerning first=109 second=121 amount=1   
kerning first=110 second=84  amount=-2  
kerning first=110 second=88  amount=-1  
kerning first=110 second=106 amount=1   
kerning first=110 second=109 amount=1   
kerning first=110 second=110 amount=1   
kerning first=110 second=112 amount=1   
kerning first=110 second=114 amount=1   
kerning first=110 second=117 amount=1   
kerning first=110 second=118 amount=1   
kerning first=110 second=119 amount=1   
kerning first=110 second=121 amount=1   
kerning first=111 second=65  amount=-1  
kerning first=111 second=74  amount=-2  
kerning first=111 second=84  amount=-3  
kerning first=111 second=88  amount=-2  
kerning first=111 second=120 amount=-1  
kerning first=112 second=65  amount=-1  
kerning first=112 second=74  amount=-2  
kerning first=112 second=84  amount=-3  
kerning first=112 second=88  amount=-2  
kerning first=112 second=120 amount=-1  
kerning first=113 second=84  amount=-3  
kerning first=113 second=105 amount=1   
kerning first=113 second=106 amount=1   
kerning first=113 second=109 amount=1   
kerning first=113 second=110 amount=1   
kerning first=113 second=112 amount=1   
kerning first=113 second=114 amount=1   
kerning first=113 second=117 amount=1   
kerning first=113 second=118 amount=1   
kerning first=113 second=119 amount=1   
kerning first=113 second=121 amount=1   
kerning first=114 second=65  amount=-2  
kerning first=114 second=74  amount=-3  
kerning first=114 second=84  amount=-2  
kerning first=114 second=88  amount=-2  
kerning first=114 second=97  amount=-1  
kerning first=114 second=99  amount=-1  
kerning first=114 second=100 amount=-1  
kerning first=114 second=101 amount=-1  
kerning first=114 second=103 amount=-1  
kerning first=114 second=111 amount=-1  
kerning first=114 second=113 amount=-1  
kerning first=114 second=115 amount=-1  
kerning first=114 second=105 amount=1   
kerning first=114 second=106 amount=1   
kerning first=115 second=65  amount=-1  
kerning first=115 second=74  amount=-2  
kerning first=115 second=84  amount=-3  
kerning first=115 second=88  amount=-2  
kerning first=115 second=120 amount=-1  
kerning first=116 second=66  amount=1   
kerning first=116 second=68  amount=1   
kerning first=116 second=67  amount=1   
kerning first=116 second=69  amount=1   
kerning first=116 second=71  amount=1   
kerning first=116 second=81  amount=1   
kerning first=116 second=83  amount=1   
kerning first=116 second=98  amount=1   
kerning first=116 second=102 amount=1   
kerning first=116 second=104 amount=1   
kerning first=116 second=107 amount=1   
kerning first=116 second=108 amount=1   
kerning first=116 second=116 amount=1   
kerning first=116 second=105 amount=1   
kerning first=116 second=106 amount=1   
kerning first=116 second=109 amount=1   
kerning first=116 second=110 amount=1   
kerning first=116 second=112 amount=1   
kerning first=116 second=114 amount=1   
kerning first=116 second=117 amount=1   
kerning first=116 second=118 amount=1   
kerning first=116 second=119 amount=1   
kerning first=116 second=121 amount=1   
kerning first=116 second=120 amount=1   
kerning first=116 second=122 amount=1   
kerning first=117 second=84  amount=-3  
kerning first=117 second=106 amount=1   
kerning first=117 second=109 amount=1   
kerning first=117 second=110 amount=1   
kerning first=117 second=112 amount=1   
kerning first=117 second=114 amount=1   
kerning first=117 second=117 amount=1   
kerning first=117 second=118 amount=1   
kerning first=117 second=119 amount=1   
kerning first=117 second=121 amount=1   
kerning first=117 second=122 amount=1   
kerning first=118 second=65  amount=-1  
kerning first=118 second=74  amount=-2  
kerning first=118 second=84  amount=-3  
kerning first=118 second=88  amount=-2  
kerning first=118 second=120 amount=-1  
kerning first=119 second=65  amount=-1  
kerning first=119 second=74  amount=-2  
kerning first=119 second=84  amount=-3  
kerning first=119 second=88  amount=-2  
kerning first=119 second=120 amount=-1  
kerning first=121 second=84  amount=-3  
kerning first=121 second=105 amount=1   
kerning first=121 second=106 amount=1   
kerning first=121 second=109 amount=1   
kerning first=121 second=110 amount=1   
kerning first=121 second=112 amount=1   
kerning first=121 second=114 amount=1   
kerning first=121 second=117 amount=1   
kerning first=121 second=118 amount=1   
kerning first=121 second=119 amount=1   
kerning first=121 second=121 amount=1   
kerning first=122 second=84  amount=-1  
kerning first=122 second=105 amount=1   
kerning first=122 second=106 amount=1   
kerning first=122 second=109 amount=1   
kerning first=122 second=110 amount=1   
kerning first=122 second=112 amount=1   
kerning first=122 second=114 amount=1   
kerning first=122 second=117 amount=1   
kerning first=122 second=118 amount=1   
kerning first=122 second=119 amount=1   
kerning first=122 second=121 amount=1   
kerning first=122 second=120 amount=1   
