info face="Cursive Serif" size=80 bold=0 italic=0 charset="" unicode=1 stretchH=100 smooth=1 aa=1 padding=0,0,0,0 spacing=1,1 outline=0
common lineHeight=80 base=63 scaleW=512 scaleH=512 pages=1 packed=0 alphaChnl=1 redChnl=0 greenChnl=0 blueChnl=0
page id=0 file="levelIconFont@2x_0.png"
chars count=95
char id=32   x=218   y=65    width=3     height=1     xoffset=-1    yoffset=79    xadvance=26    page=0  chnl=15
char id=33   x=102   y=229   width=20    height=51    xoffset=6     yoffset=13    xadvance=21    page=0  chnl=15
char id=34   x=255   y=314   width=17    height=14    xoffset=15    yoffset=13    xadvance=27    page=0  chnl=15
char id=35   x=111   y=319   width=36    height=28    xoffset=10    yoffset=24    xadvance=44    page=0  chnl=15
char id=36   x=63    y=0     width=37    height=68    xoffset=7     yoffset=5     xadvance=44    page=0  chnl=15
char id=37   x=0     y=125   width=46    height=51    xoffset=10    yoffset=13    xadvance=54    page=0  chnl=15
char id=38   x=94    y=122   width=44    height=51    xoffset=7     yoffset=13    xadvance=50    page=0  chnl=15
char id=39   x=501   y=159   width=10    height=14    xoffset=14    yoffset=13    xadvance=18    page=0  chnl=15
char id=40   x=194   y=0     width=23    height=68    xoffset=10    yoffset=5     xadvance=21    page=0  chnl=15
char id=41   x=170   y=0     width=23    height=68    xoffset=-1    yoffset=5     xadvance=21    page=0  chnl=15
char id=42   x=77    y=319   width=33    height=32    xoffset=14    yoffset=13    xadvance=45    page=0  chnl=15
char id=43   x=148   y=319   width=29    height=25    xoffset=11    yoffset=26    xadvance=40    page=0  chnl=15
char id=44   x=208   y=314   width=14    height=16    xoffset=4     yoffset=55    xadvance=23    page=0  chnl=15
char id=45   x=355   y=310   width=29    height=5     xoffset=11    yoffset=36    xadvance=40    page=0  chnl=15
char id=46   x=469   y=250   width=10    height=9     xoffset=6     yoffset=55    xadvance=21    page=0  chnl=15
char id=47   x=291   y=0     width=47    height=59    xoffset=-1    yoffset=9     xadvance=34    page=0  chnl=15
char id=48   x=443   y=108   width=41    height=51    xoffset=9     yoffset=13    xadvance=47    page=0  chnl=15
char id=49   x=379   y=216   width=25    height=50    xoffset=2     yoffset=13    xadvance=23    page=0  chnl=15
char id=50   x=359   y=112   width=41    height=51    xoffset=4     yoffset=13    xadvance=43    page=0  chnl=15
char id=51   x=390   y=164   width=36    height=51    xoffset=7     yoffset=13    xadvance=42    page=0  chnl=15
char id=52   x=184   y=225   width=40    height=50    xoffset=2     yoffset=13    xadvance=38    page=0  chnl=15
char id=53   x=143   y=226   width=40    height=50    xoffset=7     yoffset=14    xadvance=42    page=0  chnl=15
char id=54   x=474   y=0     width=37    height=51    xoffset=9     yoffset=13    xadvance=43    page=0  chnl=15
char id=55   x=353   y=164   width=36    height=51    xoffset=9     yoffset=13    xadvance=33    page=0  chnl=15
char id=56   x=464   y=160   width=36    height=51    xoffset=6     yoffset=13    xadvance=41    page=0  chnl=15
char id=57   x=162   y=173   width=38    height=51    xoffset=8     yoffset=13    xadvance=43    page=0  chnl=15
char id=58   x=487   y=250   width=15    height=30    xoffset=6     yoffset=34    xadvance=21    page=0  chnl=15
char id=59   x=432   y=262   width=19    height=37    xoffset=2     yoffset=34    xadvance=21    page=0  chnl=15
char id=60   x=39    y=319   width=37    height=34    xoffset=10    yoffset=21    xadvance=44    page=0  chnl=15
char id=61   x=223   y=314   width=31    height=15    xoffset=10    yoffset=31    xadvance=40    page=0  chnl=15
char id=62   x=0     y=319   width=38    height=34    xoffset=8     yoffset=21    xadvance=44    page=0  chnl=15
char id=63   x=36    y=229   width=32    height=51    xoffset=12    yoffset=13    xadvance=40    page=0  chnl=15
char id=64   x=225   y=225   width=39    height=50    xoffset=6     yoffset=27    xadvance=44    page=0  chnl=15
char id=65   x=296   y=60    width=50    height=51    xoffset=1     yoffset=13    xadvance=49    page=0  chnl=15
char id=66   x=273   y=117   width=42    height=51    xoffset=3     yoffset=13    xadvance=45    page=0  chnl=15
char id=67   x=41    y=177   width=40    height=51    xoffset=9     yoffset=13    xadvance=45    page=0  chnl=15
char id=68   x=397   y=56    width=49    height=51    xoffset=3     yoffset=13    xadvance=50    page=0  chnl=15
char id=69   x=239   y=173   width=37    height=51    xoffset=7     yoffset=13    xadvance=43    page=0  chnl=15
char id=70   x=229   y=121   width=43    height=51    xoffset=2     yoffset=13    xadvance=39    page=0  chnl=15
char id=71   x=122   y=174   width=39    height=51    xoffset=9     yoffset=13    xadvance=46    page=0  chnl=15
char id=72   x=241   y=65    width=54    height=51    xoffset=2     yoffset=13    xadvance=46    page=0  chnl=15
char id=73   x=405   y=216   width=24    height=50    xoffset=2     yoffset=14    xadvance=22    page=0  chnl=15
char id=74   x=427   y=160   width=36    height=51    xoffset=1     yoffset=13    xadvance=34    page=0  chnl=15
char id=75   x=425   y=0     width=48    height=54    xoffset=2     yoffset=13    xadvance=48    page=0  chnl=15
char id=76   x=184   y=121   width=44    height=51    xoffset=2     yoffset=13    xadvance=40    page=0  chnl=15
char id=77   x=49    y=70    width=67    height=51    xoffset=1     yoffset=13    xadvance=64    page=0  chnl=15
char id=78   x=183   y=69    width=57    height=51    xoffset=2     yoffset=13    xadvance=49    page=0  chnl=15
char id=79   x=401   y=108   width=41    height=51    xoffset=9     yoffset=13    xadvance=47    page=0  chnl=15
char id=80   x=447   y=55    width=47    height=51    xoffset=3     yoffset=13    xadvance=47    page=0  chnl=15
char id=81   x=383   y=0     width=41    height=55    xoffset=8     yoffset=13    xadvance=46    page=0  chnl=15
char id=82   x=0     y=70    width=48    height=54    xoffset=3     yoffset=13    xadvance=49    page=0  chnl=15
char id=83   x=201   y=173   width=37    height=51    xoffset=7     yoffset=13    xadvance=44    page=0  chnl=15
char id=84   x=139   y=121   width=44    height=51    xoffset=8     yoffset=13    xadvance=42    page=0  chnl=15
char id=85   x=316   y=112   width=42    height=51    xoffset=10    yoffset=13    xadvance=48    page=0  chnl=15
char id=86   x=82    y=177   width=39    height=51    xoffset=10    yoffset=13    xadvance=46    page=0  chnl=15
char id=87   x=117   y=69    width=65    height=51    xoffset=10    yoffset=13    xadvance=72    page=0  chnl=15
char id=88   x=47    y=125   width=46    height=51    xoffset=2     yoffset=13    xadvance=41    page=0  chnl=15
char id=89   x=0     y=177   width=40    height=51    xoffset=10    yoffset=13    xadvance=46    page=0  chnl=15
char id=90   x=347   y=60    width=49    height=51    xoffset=3     yoffset=13    xadvance=45    page=0  chnl=15
char id=91   x=101   y=0     width=34    height=68    xoffset=5     yoffset=5     xadvance=26    page=0  chnl=15
char id=92   x=339   y=0     width=22    height=59    xoffset=12    yoffset=9     xadvance=34    page=0  chnl=15
char id=93   x=136   y=0     width=33    height=68    xoffset=-1    yoffset=5     xadvance=26    page=0  chnl=15
char id=94   x=178   y=315   width=29    height=16    xoffset=15    yoffset=13    xadvance=41    page=0  chnl=15
char id=95   x=324   y=314   width=30    height=5     xoffset=4     yoffset=64    xadvance=40    page=0  chnl=15
char id=96   x=310   y=314   width=13    height=13    xoffset=16    yoffset=13    xadvance=26    page=0  chnl=15
char id=97   x=229   y=276   width=35    height=37    xoffset=7     yoffset=27    xadvance=40    page=0  chnl=15
char id=98   x=69    y=229   width=32    height=51    xoffset=9     yoffset=13    xadvance=40    page=0  chnl=15
char id=99   x=300   y=276   width=33    height=37    xoffset=7     yoffset=27    xadvance=38    page=0  chnl=15
char id=100  x=277   y=169   width=37    height=51    xoffset=7     yoffset=13    xadvance=40    page=0  chnl=15
char id=101  x=334   y=272   width=32    height=37    xoffset=7     yoffset=27    xadvance=38    page=0  chnl=15
char id=102  x=218   y=0     width=43    height=64    xoffset=-2    yoffset=13    xadvance=32    page=0  chnl=15
char id=103  x=304   y=221   width=38    height=50    xoffset=4     yoffset=27    xadvance=39    page=0  chnl=15
char id=104  x=315   y=169   width=37    height=51    xoffset=6     yoffset=13    xadvance=41    page=0  chnl=15
char id=105  x=123   y=226   width=19    height=51    xoffset=6     yoffset=13    xadvance=21    page=0  chnl=15
char id=106  x=262   y=0     width=28    height=63    xoffset=-3    yoffset=13    xadvance=20    page=0  chnl=15
char id=107  x=0     y=229   width=35    height=51    xoffset=6     yoffset=13    xadvance=38    page=0  chnl=15
char id=108  x=495   y=52    width=16    height=51    xoffset=8     yoffset=13    xadvance=21    page=0  chnl=15
char id=109  x=0     y=281   width=57    height=37    xoffset=6     yoffset=27    xadvance=61    page=0  chnl=15
char id=110  x=153   y=277   width=37    height=37    xoffset=6     yoffset=27    xadvance=41    page=0  chnl=15
char id=111  x=367   y=272   width=32    height=37    xoffset=7     yoffset=27    xadvance=38    page=0  chnl=15
char id=112  x=430   y=212   width=38    height=49    xoffset=3     yoffset=27    xadvance=40    page=0  chnl=15
char id=113  x=343   y=221   width=35    height=50    xoffset=7     yoffset=27    xadvance=40    page=0  chnl=15
char id=114  x=452   y=262   width=34    height=36    xoffset=6     yoffset=27    xadvance=33    page=0  chnl=15
char id=115  x=400   y=267   width=31    height=37    xoffset=5     yoffset=27    xadvance=35    page=0  chnl=15
char id=116  x=485   y=107   width=24    height=51    xoffset=8     yoffset=13    xadvance=24    page=0  chnl=15
char id=117  x=191   y=276   width=37    height=37    xoffset=6     yoffset=27    xadvance=41    page=0  chnl=15
char id=118  x=265   y=276   width=34    height=37    xoffset=6     yoffset=27    xadvance=39    page=0  chnl=15
char id=119  x=58    y=281   width=54    height=37    xoffset=6     yoffset=27    xadvance=59    page=0  chnl=15
char id=120  x=469   y=212   width=39    height=37    xoffset=1     yoffset=27    xadvance=35    page=0  chnl=15
char id=121  x=265   y=225   width=38    height=50    xoffset=5     yoffset=27    xadvance=40    page=0  chnl=15
char id=122  x=113   y=281   width=39    height=37    xoffset=1     yoffset=27    xadvance=34    page=0  chnl=15
char id=123  x=32    y=0     width=30    height=69    xoffset=7     yoffset=4     xadvance=25    page=0  chnl=15
char id=124  x=362   y=0     width=20    height=58    xoffset=6     yoffset=10    xadvance=21    page=0  chnl=15
char id=125  x=0     y=0     width=31    height=69    xoffset=-1    yoffset=4     xadvance=25    page=0  chnl=15
char id=126  x=273   y=314   width=36    height=13    xoffset=10    yoffset=33    xadvance=46    page=0  chnl=15
kernings count=691
kerning first=65  second=66  amount=-3  
kerning first=65  second=68  amount=-3  
kerning first=65  second=67  amount=-5  
kerning first=65  second=69  amount=-5  
kerning first=65  second=71  amount=-5  
kerning first=65  second=81  amount=-5  
kerning first=65  second=83  amount=-5  
kerning first=65  second=74  amount=1   
kerning first=65  second=84  amount=-9  
kerning first=65  second=97  amount=-3  
kerning first=65  second=99  amount=-3  
kerning first=65  second=100 amount=-3  
kerning first=65  second=101 amount=-3  
kerning first=65  second=103 amount=-3  
kerning first=65  second=111 amount=-3  
kerning first=65  second=113 amount=-3  
kerning first=65  second=115 amount=-3  
kerning first=65  second=98  amount=-3  
kerning first=65  second=102 amount=-3  
kerning first=65  second=104 amount=-3  
kerning first=65  second=107 amount=-3  
kerning first=65  second=108 amount=-3  
kerning first=65  second=116 amount=-3  
kerning first=65  second=105 amount=-3  
kerning first=65  second=109 amount=-2  
kerning first=65  second=110 amount=-2  
kerning first=65  second=112 amount=-2  
kerning first=65  second=114 amount=-2  
kerning first=65  second=117 amount=-2  
kerning first=65  second=118 amount=-2  
kerning first=65  second=119 amount=-2  
kerning first=65  second=121 amount=-2  
kerning first=65  second=122 amount=-2  
kerning first=66  second=65  amount=-3  
kerning first=66  second=74  amount=-3  
kerning first=66  second=84  amount=-5  
kerning first=66  second=88  amount=-4  
kerning first=66  second=97  amount=-2  
kerning first=66  second=99  amount=-2  
kerning first=66  second=100 amount=-2  
kerning first=66  second=101 amount=-2  
kerning first=66  second=103 amount=-2  
kerning first=66  second=111 amount=-2  
kerning first=66  second=113 amount=-2  
kerning first=66  second=115 amount=-2  
kerning first=66  second=98  amount=-1  
kerning first=66  second=102 amount=-1  
kerning first=66  second=104 amount=-1  
kerning first=66  second=107 amount=-1  
kerning first=66  second=108 amount=-1  
kerning first=66  second=116 amount=-1  
kerning first=66  second=106 amount=2   
kerning first=66  second=120 amount=-2  
kerning first=67  second=65  amount=-3  
kerning first=67  second=74  amount=-2  
kerning first=67  second=84  amount=-5  
kerning first=67  second=88  amount=-5  
kerning first=67  second=97  amount=-1  
kerning first=67  second=99  amount=-1  
kerning first=67  second=100 amount=-1  
kerning first=67  second=101 amount=-1  
kerning first=67  second=103 amount=-1  
kerning first=67  second=111 amount=-1  
kerning first=67  second=113 amount=-1  
kerning first=67  second=115 amount=-1  
kerning first=67  second=105 amount=1   
kerning first=67  second=106 amount=2   
kerning first=67  second=109 amount=2   
kerning first=67  second=110 amount=2   
kerning first=67  second=112 amount=2   
kerning first=67  second=114 amount=2   
kerning first=67  second=117 amount=2   
kerning first=67  second=118 amount=2   
kerning first=67  second=119 amount=2   
kerning first=67  second=121 amount=2   
kerning first=68  second=65  amount=-3  
kerning first=68  second=74  amount=-3  
kerning first=68  second=84  amount=-5  
kerning first=68  second=88  amount=-4  
kerning first=68  second=97  amount=-2  
kerning first=68  second=99  amount=-2  
kerning first=68  second=100 amount=-2  
kerning first=68  second=101 amount=-2  
kerning first=68  second=103 amount=-2  
kerning first=68  second=111 amount=-2  
kerning first=68  second=113 amount=-2  
kerning first=68  second=115 amount=-2  
kerning first=68  second=98  amount=-1  
kerning first=68  second=102 amount=-1  
kerning first=68  second=104 amount=-1  
kerning first=68  second=107 amount=-1  
kerning first=68  second=108 amount=-1  
kerning first=68  second=116 amount=-1  
kerning first=68  second=106 amount=2   
kerning first=68  second=120 amount=-2  
kerning first=69  second=65  amount=-3  
kerning first=69  second=74  amount=-2  
kerning first=69  second=84  amount=-5  
kerning first=69  second=88  amount=-5  
kerning first=69  second=97  amount=-1  
kerning first=69  second=99  amount=-1  
kerning first=69  second=100 amount=-1  
kerning first=69  second=101 amount=-1  
kerning first=69  second=103 amount=-1  
kerning first=69  second=111 amount=-1  
kerning first=69  second=113 amount=-1  
kerning first=69  second=115 amount=-1  
kerning first=69  second=105 amount=1   
kerning first=69  second=106 amount=2   
kerning first=69  second=109 amount=2   
kerning first=69  second=110 amount=2   
kerning first=69  second=112 amount=2   
kerning first=69  second=114 amount=2   
kerning first=69  second=117 amount=2   
kerning first=69  second=118 amount=2   
kerning first=69  second=119 amount=2   
kerning first=69  second=121 amount=2   
kerning first=70  second=65  amount=-6  
kerning first=70  second=66  amount=-2  
kerning first=70  second=68  amount=-2  
kerning first=70  second=67  amount=-2  
kerning first=70  second=69  amount=-2  
kerning first=70  second=71  amount=-2  
kerning first=70  second=81  amount=-2  
kerning first=70  second=83  amount=-2  
kerning first=70  second=74  amount=-9  
kerning first=70  second=84  amount=-3  
kerning first=70  second=88  amount=-2  
kerning first=70  second=97  amount=-6  
kerning first=70  second=99  amount=-6  
kerning first=70  second=100 amount=-6  
kerning first=70  second=101 amount=-6  
kerning first=70  second=103 amount=-6  
kerning first=70  second=111 amount=-6  
kerning first=70  second=113 amount=-6  
kerning first=70  second=115 amount=-6  
kerning first=70  second=98  amount=-2  
kerning first=70  second=102 amount=-2  
kerning first=70  second=104 amount=-2  
kerning first=70  second=107 amount=-2  
kerning first=70  second=108 amount=-2  
kerning first=70  second=116 amount=-2  
kerning first=70  second=109 amount=-2  
kerning first=70  second=110 amount=-2  
kerning first=70  second=112 amount=-2  
kerning first=70  second=114 amount=-2  
kerning first=70  second=117 amount=-2  
kerning first=70  second=118 amount=-2  
kerning first=70  second=119 amount=-2  
kerning first=70  second=121 amount=-2  
kerning first=70  second=120 amount=-5  
kerning first=70  second=122 amount=-3  
kerning first=71  second=65  amount=-3  
kerning first=71  second=74  amount=-2  
kerning first=71  second=84  amount=-5  
kerning first=71  second=88  amount=-5  
kerning first=71  second=97  amount=-1  
kerning first=71  second=99  amount=-1  
kerning first=71  second=100 amount=-1  
kerning first=71  second=101 amount=-1  
kerning first=71  second=103 amount=-1  
kerning first=71  second=111 amount=-1  
kerning first=71  second=113 amount=-1  
kerning first=71  second=115 amount=-1  
kerning first=71  second=105 amount=1   
kerning first=71  second=106 amount=2   
kerning first=71  second=109 amount=2   
kerning first=71  second=110 amount=2   
kerning first=71  second=112 amount=2   
kerning first=71  second=114 amount=2   
kerning first=71  second=117 amount=2   
kerning first=71  second=118 amount=2   
kerning first=71  second=119 amount=2   
kerning first=71  second=121 amount=2   
kerning first=75  second=65  amount=-3  
kerning first=75  second=67  amount=-2  
kerning first=75  second=69  amount=-2  
kerning first=75  second=71  amount=-2  
kerning first=75  second=81  amount=-2  
kerning first=75  second=83  amount=-2  
kerning first=75  second=74  amount=-3  
kerning first=75  second=84  amount=-3  
kerning first=75  second=88  amount=-2  
kerning first=75  second=97  amount=-3  
kerning first=75  second=99  amount=-3  
kerning first=75  second=100 amount=-3  
kerning first=75  second=101 amount=-3  
kerning first=75  second=103 amount=-3  
kerning first=75  second=111 amount=-3  
kerning first=75  second=113 amount=-3  
kerning first=75  second=115 amount=-3  
kerning first=75  second=106 amount=1   
kerning first=75  second=109 amount=-2  
kerning first=75  second=110 amount=-2  
kerning first=75  second=112 amount=-2  
kerning first=75  second=114 amount=-2  
kerning first=75  second=117 amount=-2  
kerning first=75  second=118 amount=-2  
kerning first=75  second=119 amount=-2  
kerning first=75  second=121 amount=-2  
kerning first=75  second=120 amount=-2  
kerning first=76  second=67  amount=-2  
kerning first=76  second=69  amount=-2  
kerning first=76  second=71  amount=-2  
kerning first=76  second=81  amount=-2  
kerning first=76  second=83  amount=-2  
kerning first=76  second=74  amount=1   
kerning first=76  second=84  amount=-5  
kerning first=76  second=97  amount=-3  
kerning first=76  second=99  amount=-3  
kerning first=76  second=100 amount=-3  
kerning first=76  second=101 amount=-3  
kerning first=76  second=103 amount=-3  
kerning first=76  second=111 amount=-3  
kerning first=76  second=113 amount=-3  
kerning first=76  second=115 amount=-3  
kerning first=76  second=98  amount=2   
kerning first=76  second=102 amount=2   
kerning first=76  second=104 amount=2   
kerning first=76  second=107 amount=2   
kerning first=76  second=108 amount=2   
kerning first=76  second=116 amount=2   
kerning first=76  second=105 amount=1   
kerning first=76  second=106 amount=3   
kerning first=76  second=109 amount=2   
kerning first=76  second=110 amount=2   
kerning first=76  second=112 amount=2   
kerning first=76  second=114 amount=2   
kerning first=76  second=117 amount=2   
kerning first=76  second=118 amount=2   
kerning first=76  second=119 amount=2   
kerning first=76  second=121 amount=2   
kerning first=80  second=65  amount=-6  
kerning first=80  second=74  amount=-7  
kerning first=80  second=84  amount=-4  
kerning first=80  second=88  amount=-4  
kerning first=80  second=97  amount=-2  
kerning first=80  second=99  amount=-2  
kerning first=80  second=100 amount=-2  
kerning first=80  second=101 amount=-2  
kerning first=80  second=103 amount=-2  
kerning first=80  second=111 amount=-2  
kerning first=80  second=113 amount=-2  
kerning first=80  second=115 amount=-2  
kerning first=80  second=106 amount=1   
kerning first=80  second=122 amount=-2  
kerning first=81  second=65  amount=-3  
kerning first=81  second=74  amount=-2  
kerning first=81  second=84  amount=-5  
kerning first=81  second=88  amount=-5  
kerning first=81  second=97  amount=-1  
kerning first=81  second=99  amount=-1  
kerning first=81  second=100 amount=-1  
kerning first=81  second=101 amount=-1  
kerning first=81  second=103 amount=-1  
kerning first=81  second=111 amount=-1  
kerning first=81  second=113 amount=-1  
kerning first=81  second=115 amount=-1  
kerning first=81  second=105 amount=1   
kerning first=81  second=106 amount=2   
kerning first=81  second=109 amount=2   
kerning first=81  second=110 amount=2   
kerning first=81  second=112 amount=2   
kerning first=81  second=114 amount=2   
kerning first=81  second=117 amount=2   
kerning first=81  second=118 amount=2   
kerning first=81  second=119 amount=2   
kerning first=81  second=121 amount=2   
kerning first=82  second=65  amount=-3  
kerning first=82  second=74  amount=-3  
kerning first=82  second=84  amount=-3  
kerning first=82  second=88  amount=-2  
kerning first=82  second=97  amount=-1  
kerning first=82  second=99  amount=-1  
kerning first=82  second=100 amount=-1  
kerning first=82  second=101 amount=-1  
kerning first=82  second=103 amount=-1  
kerning first=82  second=111 amount=-1  
kerning first=82  second=113 amount=-1  
kerning first=82  second=115 amount=-1  
kerning first=82  second=106 amount=2   
kerning first=82  second=109 amount=2   
kerning first=82  second=110 amount=2   
kerning first=82  second=112 amount=2   
kerning first=82  second=114 amount=2   
kerning first=82  second=117 amount=2   
kerning first=82  second=118 amount=2   
kerning first=82  second=119 amount=2   
kerning first=82  second=121 amount=2   
kerning first=83  second=65  amount=-3  
kerning first=83  second=74  amount=-2  
kerning first=83  second=84  amount=-5  
kerning first=83  second=88  amount=-5  
kerning first=83  second=97  amount=-1  
kerning first=83  second=99  amount=-1  
kerning first=83  second=100 amount=-1  
kerning first=83  second=101 amount=-1  
kerning first=83  second=103 amount=-1  
kerning first=83  second=111 amount=-1  
kerning first=83  second=113 amount=-1  
kerning first=83  second=115 amount=-1  
kerning first=83  second=105 amount=1   
kerning first=83  second=106 amount=2   
kerning first=83  second=109 amount=2   
kerning first=83  second=110 amount=2   
kerning first=83  second=112 amount=2   
kerning first=83  second=114 amount=2   
kerning first=83  second=117 amount=2   
kerning first=83  second=118 amount=2   
kerning first=83  second=119 amount=2   
kerning first=83  second=121 amount=2   
kerning first=84  second=65  amount=-6  
kerning first=84  second=67  amount=-3  
kerning first=84  second=69  amount=-3  
kerning first=84  second=71  amount=-3  
kerning first=84  second=81  amount=-3  
kerning first=84  second=83  amount=-3  
kerning first=84  second=74  amount=-6  
kerning first=84  second=97  amount=-6  
kerning first=84  second=99  amount=-6  
kerning first=84  second=100 amount=-6  
kerning first=84  second=101 amount=-6  
kerning first=84  second=103 amount=-6  
kerning first=84  second=111 amount=-6  
kerning first=84  second=113 amount=-6  
kerning first=84  second=115 amount=-6  
kerning first=84  second=98  amount=1   
kerning first=84  second=102 amount=1   
kerning first=84  second=104 amount=1   
kerning first=84  second=107 amount=1   
kerning first=84  second=108 amount=1   
kerning first=84  second=116 amount=1   
kerning first=84  second=105 amount=2   
kerning first=84  second=106 amount=1   
kerning first=84  second=109 amount=-3  
kerning first=84  second=110 amount=-3  
kerning first=84  second=112 amount=-3  
kerning first=84  second=114 amount=-3  
kerning first=84  second=117 amount=-3  
kerning first=84  second=118 amount=-3  
kerning first=84  second=119 amount=-3  
kerning first=84  second=121 amount=-3  
kerning first=84  second=120 amount=-6  
kerning first=84  second=122 amount=-3  
kerning first=88  second=65  amount=-2  
kerning first=88  second=84  amount=-3  
kerning first=88  second=88  amount=-2  
kerning first=88  second=97  amount=-3  
kerning first=88  second=99  amount=-3  
kerning first=88  second=100 amount=-3  
kerning first=88  second=101 amount=-3  
kerning first=88  second=103 amount=-3  
kerning first=88  second=111 amount=-3  
kerning first=88  second=113 amount=-3  
kerning first=88  second=115 amount=-3  
kerning first=88  second=106 amount=3   
kerning first=88  second=109 amount=2   
kerning first=88  second=110 amount=2   
kerning first=88  second=112 amount=2   
kerning first=88  second=114 amount=2   
kerning first=88  second=117 amount=2   
kerning first=88  second=118 amount=2   
kerning first=88  second=119 amount=2   
kerning first=88  second=121 amount=2   
kerning first=88  second=122 amount=2   
kerning first=97  second=84  amount=-6  
kerning first=97  second=88  amount=-1  
kerning first=97  second=98  amount=1   
kerning first=97  second=102 amount=1   
kerning first=97  second=104 amount=1   
kerning first=97  second=107 amount=1   
kerning first=97  second=108 amount=1   
kerning first=97  second=116 amount=1   
kerning first=97  second=105 amount=1   
kerning first=97  second=106 amount=2   
kerning first=97  second=109 amount=2   
kerning first=97  second=110 amount=2   
kerning first=97  second=112 amount=2   
kerning first=97  second=114 amount=2   
kerning first=97  second=117 amount=2   
kerning first=97  second=118 amount=2   
kerning first=97  second=119 amount=2   
kerning first=97  second=121 amount=2   
kerning first=97  second=120 amount=1   
kerning first=97  second=122 amount=2   
kerning first=98  second=65  amount=-3  
kerning first=98  second=74  amount=-3  
kerning first=98  second=84  amount=-6  
kerning first=98  second=88  amount=-5  
kerning first=98  second=106 amount=1   
kerning first=98  second=120 amount=-2  
kerning first=99  second=65  amount=-3  
kerning first=99  second=74  amount=-3  
kerning first=99  second=84  amount=-6  
kerning first=99  second=88  amount=-5  
kerning first=99  second=106 amount=1   
kerning first=99  second=120 amount=-2  
kerning first=100 second=66  amount=1   
kerning first=100 second=68  amount=1   
kerning first=100 second=74  amount=1   
kerning first=100 second=84  amount=-3  
kerning first=100 second=98  amount=2   
kerning first=100 second=102 amount=2   
kerning first=100 second=104 amount=2   
kerning first=100 second=107 amount=2   
kerning first=100 second=108 amount=2   
kerning first=100 second=116 amount=2   
kerning first=100 second=105 amount=2   
kerning first=100 second=106 amount=3   
kerning first=100 second=109 amount=2   
kerning first=100 second=110 amount=2   
kerning first=100 second=112 amount=2   
kerning first=100 second=114 amount=2   
kerning first=100 second=117 amount=2   
kerning first=100 second=118 amount=2   
kerning first=100 second=119 amount=2   
kerning first=100 second=121 amount=2   
kerning first=100 second=120 amount=2   
kerning first=100 second=122 amount=2   
kerning first=101 second=65  amount=-3  
kerning first=101 second=74  amount=-3  
kerning first=101 second=84  amount=-6  
kerning first=101 second=88  amount=-5  
kerning first=101 second=106 amount=1   
kerning first=101 second=120 amount=-2  
kerning first=102 second=65  amount=-3  
kerning first=102 second=74  amount=-6  
kerning first=102 second=97  amount=-5  
kerning first=102 second=99  amount=-5  
kerning first=102 second=100 amount=-5  
kerning first=102 second=101 amount=-5  
kerning first=102 second=103 amount=-5  
kerning first=102 second=111 amount=-5  
kerning first=102 second=113 amount=-5  
kerning first=102 second=115 amount=-5  
kerning first=102 second=105 amount=2   
kerning first=102 second=106 amount=2   
kerning first=102 second=120 amount=-3  
kerning first=102 second=122 amount=-2  
kerning first=103 second=84  amount=-6  
kerning first=103 second=88  amount=-1  
kerning first=103 second=98  amount=1   
kerning first=103 second=102 amount=1   
kerning first=103 second=104 amount=1   
kerning first=103 second=107 amount=1   
kerning first=103 second=108 amount=1   
kerning first=103 second=116 amount=1   
kerning first=103 second=105 amount=2   
kerning first=103 second=106 amount=3   
kerning first=103 second=109 amount=2   
kerning first=103 second=110 amount=2   
kerning first=103 second=112 amount=2   
kerning first=103 second=114 amount=2   
kerning first=103 second=117 amount=2   
kerning first=103 second=118 amount=2   
kerning first=103 second=119 amount=2   
kerning first=103 second=121 amount=2   
kerning first=103 second=120 amount=1   
kerning first=104 second=84  amount=-5  
kerning first=104 second=88  amount=-2  
kerning first=104 second=106 amount=2   
kerning first=104 second=109 amount=2   
kerning first=104 second=110 amount=2   
kerning first=104 second=112 amount=2   
kerning first=104 second=114 amount=2   
kerning first=104 second=117 amount=2   
kerning first=104 second=118 amount=2   
kerning first=104 second=119 amount=2   
kerning first=104 second=121 amount=2   
kerning first=104 second=122 amount=1   
kerning first=105 second=66  amount=1   
kerning first=105 second=68  amount=1   
kerning first=105 second=74  amount=1   
kerning first=105 second=84  amount=-3  
kerning first=105 second=88  amount=-1  
kerning first=105 second=98  amount=2   
kerning first=105 second=102 amount=2   
kerning first=105 second=104 amount=2   
kerning first=105 second=107 amount=2   
kerning first=105 second=108 amount=2   
kerning first=105 second=116 amount=2   
kerning first=105 second=105 amount=2   
kerning first=105 second=106 amount=2   
kerning first=105 second=109 amount=2   
kerning first=105 second=110 amount=2   
kerning first=105 second=112 amount=2   
kerning first=105 second=114 amount=2   
kerning first=105 second=117 amount=2   
kerning first=105 second=118 amount=2   
kerning first=105 second=119 amount=2   
kerning first=105 second=121 amount=2   
kerning first=105 second=122 amount=2   
kerning first=108 second=66  amount=1   
kerning first=108 second=68  amount=1   
kerning first=108 second=74  amount=1   
kerning first=108 second=84  amount=-3  
kerning first=108 second=98  amount=2   
kerning first=108 second=102 amount=2   
kerning first=108 second=104 amount=2   
kerning first=108 second=107 amount=2   
kerning first=108 second=108 amount=2   
kerning first=108 second=116 amount=2   
kerning first=108 second=105 amount=2   
kerning first=108 second=106 amount=3   
kerning first=108 second=109 amount=2   
kerning first=108 second=110 amount=2   
kerning first=108 second=112 amount=2   
kerning first=108 second=114 amount=2   
kerning first=108 second=117 amount=2   
kerning first=108 second=118 amount=2   
kerning first=108 second=119 amount=2   
kerning first=108 second=121 amount=2   
kerning first=108 second=120 amount=2   
kerning first=108 second=122 amount=2   
kerning first=109 second=84  amount=-5  
kerning first=109 second=88  amount=-2  
kerning first=109 second=106 amount=2   
kerning first=109 second=109 amount=2   
kerning first=109 second=110 amount=2   
kerning first=109 second=112 amount=2   
kerning first=109 second=114 amount=2   
kerning first=109 second=117 amount=2   
kerning first=109 second=118 amount=2   
kerning first=109 second=119 amount=2   
kerning first=109 second=121 amount=2   
kerning first=109 second=122 amount=1   
kerning first=110 second=84  amount=-5  
kerning first=110 second=88  amount=-2  
kerning first=110 second=106 amount=2   
kerning first=110 second=109 amount=2   
kerning first=110 second=110 amount=2   
kerning first=110 second=112 amount=2   
kerning first=110 second=114 amount=2   
kerning first=110 second=117 amount=2   
kerning first=110 second=118 amount=2   
kerning first=110 second=119 amount=2   
kerning first=110 second=121 amount=2   
kerning first=110 second=122 amount=1   
kerning first=111 second=65  amount=-3  
kerning first=111 second=74  amount=-3  
kerning first=111 second=84  amount=-6  
kerning first=111 second=88  amount=-5  
kerning first=111 second=106 amount=1   
kerning first=111 second=120 amount=-2  
kerning first=112 second=65  amount=-3  
kerning first=112 second=74  amount=-3  
kerning first=112 second=84  amount=-6  
kerning first=112 second=88  amount=-5  
kerning first=112 second=106 amount=1   
kerning first=112 second=120 amount=-2  
kerning first=113 second=84  amount=-6  
kerning first=113 second=88  amount=-1  
kerning first=113 second=98  amount=1   
kerning first=113 second=102 amount=1   
kerning first=113 second=104 amount=1   
kerning first=113 second=107 amount=1   
kerning first=113 second=108 amount=1   
kerning first=113 second=116 amount=1   
kerning first=113 second=105 amount=2   
kerning first=113 second=106 amount=3   
kerning first=113 second=109 amount=2   
kerning first=113 second=110 amount=2   
kerning first=113 second=112 amount=2   
kerning first=113 second=114 amount=2   
kerning first=113 second=117 amount=2   
kerning first=113 second=118 amount=2   
kerning first=113 second=119 amount=2   
kerning first=113 second=121 amount=2   
kerning first=114 second=65  amount=-3  
kerning first=114 second=74  amount=-6  
kerning first=114 second=84  amount=-4  
kerning first=114 second=88  amount=-5  
kerning first=114 second=97  amount=-2  
kerning first=114 second=99  amount=-2  
kerning first=114 second=100 amount=-2  
kerning first=114 second=101 amount=-2  
kerning first=114 second=103 amount=-2  
kerning first=114 second=111 amount=-2  
kerning first=114 second=113 amount=-2  
kerning first=114 second=115 amount=-2  
kerning first=114 second=105 amount=2   
kerning first=114 second=106 amount=2   
kerning first=114 second=109 amount=1   
kerning first=114 second=110 amount=1   
kerning first=114 second=112 amount=1   
kerning first=114 second=114 amount=1   
kerning first=114 second=117 amount=1   
kerning first=114 second=118 amount=1   
kerning first=114 second=119 amount=1   
kerning first=114 second=121 amount=1   
kerning first=114 second=120 amount=1   
kerning first=114 second=122 amount=1   
kerning first=115 second=65  amount=-3  
kerning first=115 second=74  amount=-3  
kerning first=115 second=84  amount=-6  
kerning first=115 second=88  amount=-5  
kerning first=115 second=106 amount=1   
kerning first=115 second=120 amount=-2  
kerning first=116 second=66  amount=3   
kerning first=116 second=68  amount=3   
kerning first=116 second=67  amount=2   
kerning first=116 second=69  amount=2   
kerning first=116 second=71  amount=2   
kerning first=116 second=81  amount=2   
kerning first=116 second=83  amount=2   
kerning first=116 second=84  amount=1   
kerning first=116 second=88  amount=1   
kerning first=116 second=98  amount=2   
kerning first=116 second=102 amount=2   
kerning first=116 second=104 amount=2   
kerning first=116 second=107 amount=2   
kerning first=116 second=108 amount=2   
kerning first=116 second=116 amount=2   
kerning first=116 second=105 amount=3   
kerning first=116 second=106 amount=3   
kerning first=116 second=109 amount=3   
kerning first=116 second=110 amount=3   
kerning first=116 second=112 amount=3   
kerning first=116 second=114 amount=3   
kerning first=116 second=117 amount=3   
kerning first=116 second=118 amount=3   
kerning first=116 second=119 amount=3   
kerning first=116 second=121 amount=3   
kerning first=116 second=120 amount=2   
kerning first=116 second=122 amount=3   
kerning first=117 second=84  amount=-6  
kerning first=117 second=88  amount=-1  
kerning first=117 second=98  amount=1   
kerning first=117 second=102 amount=1   
kerning first=117 second=104 amount=1   
kerning first=117 second=107 amount=1   
kerning first=117 second=108 amount=1   
kerning first=117 second=116 amount=1   
kerning first=117 second=105 amount=1   
kerning first=117 second=106 amount=2   
kerning first=117 second=109 amount=2   
kerning first=117 second=110 amount=2   
kerning first=117 second=112 amount=2   
kerning first=117 second=114 amount=2   
kerning first=117 second=117 amount=2   
kerning first=117 second=118 amount=2   
kerning first=117 second=119 amount=2   
kerning first=117 second=121 amount=2   
kerning first=117 second=120 amount=1   
kerning first=117 second=122 amount=2   
kerning first=118 second=65  amount=-3  
kerning first=118 second=74  amount=-3  
kerning first=118 second=84  amount=-6  
kerning first=118 second=88  amount=-5  
kerning first=118 second=106 amount=1   
kerning first=118 second=120 amount=-2  
kerning first=119 second=65  amount=-3  
kerning first=119 second=74  amount=-3  
kerning first=119 second=84  amount=-6  
kerning first=119 second=88  amount=-5  
kerning first=119 second=106 amount=1   
kerning first=119 second=120 amount=-2  
kerning first=121 second=84  amount=-6  
kerning first=121 second=88  amount=-1  
kerning first=121 second=98  amount=1   
kerning first=121 second=102 amount=1   
kerning first=121 second=104 amount=1   
kerning first=121 second=107 amount=1   
kerning first=121 second=108 amount=1   
kerning first=121 second=116 amount=1   
kerning first=121 second=105 amount=2   
kerning first=121 second=106 amount=3   
kerning first=121 second=109 amount=2   
kerning first=121 second=110 amount=2   
kerning first=121 second=112 amount=2   
kerning first=121 second=114 amount=2   
kerning first=121 second=117 amount=2   
kerning first=121 second=118 amount=2   
kerning first=121 second=119 amount=2   
kerning first=121 second=121 amount=2   
kerning first=121 second=120 amount=1   
kerning first=122 second=66  amount=1   
kerning first=122 second=68  amount=1   
kerning first=122 second=84  amount=-2  
kerning first=122 second=105 amount=3   
kerning first=122 second=106 amount=3   
kerning first=122 second=109 amount=3   
kerning first=122 second=110 amount=3   
kerning first=122 second=112 amount=3   
kerning first=122 second=114 amount=3   
kerning first=122 second=117 amount=3   
kerning first=122 second=118 amount=3   
kerning first=122 second=119 amount=3   
kerning first=122 second=121 amount=3   
kerning first=122 second=120 amount=2   
kerning first=122 second=122 amount=1   
