info face="Ebrima" size=-15 bold=1 italic=0 charset="" unicode=1 stretchH=100 smooth=1 aa=1 padding=0,0,0,0 spacing=1,1 outline=0
common lineHeight=24 base=17 scaleW=64 scaleH=64 pages=1 packed=0 alphaChnl=1 redChnl=0 greenChnl=0 blueChnl=0
page id=0 file="shopBtn_0.png"
chars count=13
char id=36   x=0     y=0     width=9     height=14    xoffset=0     yoffset=5     xadvance=9     page=0  chnl=15
char id=44   x=48    y=12    width=4     height=4     xoffset=0     yoffset=15    xadvance=4     page=0  chnl=15
char id=46   x=53    y=12    width=4     height=2     xoffset=0     yoffset=15    xadvance=4     page=0  chnl=15
char id=48   x=10    y=0     width=9     height=11    xoffset=0     yoffset=6     xadvance=9     page=0  chnl=15
char id=49   x=30    y=12    width=8     height=11    xoffset=1     yoffset=6     xadvance=9     page=0  chnl=15
char id=50   x=20    y=0     width=9     height=11    xoffset=0     yoffset=6     xadvance=9     page=0  chnl=15
char id=51   x=30    y=0     width=9     height=11    xoffset=0     yoffset=6     xadvance=9     page=0  chnl=15
char id=52   x=40    y=0     width=9     height=11    xoffset=0     yoffset=6     xadvance=9     page=0  chnl=15
char id=53   x=39    y=12    width=8     height=11    xoffset=1     yoffset=6     xadvance=9     page=0  chnl=15
char id=54   x=50    y=0     width=9     height=11    xoffset=0     yoffset=6     xadvance=9     page=0  chnl=15
char id=55   x=0     y=15    width=9     height=11    xoffset=0     yoffset=6     xadvance=9     page=0  chnl=15
char id=56   x=10    y=12    width=9     height=11    xoffset=0     yoffset=6     xadvance=9     page=0  chnl=15
char id=57   x=20    y=12    width=9     height=11    xoffset=0     yoffset=6     xadvance=9     page=0  chnl=15
